{
  "apps" : [{
    // Application #1
    "name"        : "smapshot",
    "script"      : "server.js",
    "log_date_format" : "YYYY-MM-DD HH:mm Z",
    "env": {
      "NODE_ENV": "production",
    }
  }]
}
