<svg width="29" height="29" viewBox="0 0 29 29" version="1.1" xmlns="http://www.w3.org/2000/svg" xmlns:xlink="http://www.w3.org/1999/xlink">
<title>Globe</title>
<desc>Created using Figma</desc>
<g id="Canvas" transform="translate(-1675 121)">
<g id="Globe">
<g id="Trac&#195;&#169;_215">
<use xlink:href="#path0_fill" transform="translate(1676.07 -120.5)" fill="#444444"/>
<use xlink:href="#path1_stroke" transform="translate(1676.07 -120.5)" fill="#444444"/>
</g>
<g id="Rectangle_17">
<use xlink:href="#path2_fill" transform="translate(1676.26 -107.125)" fill="#444444"/>
<use xlink:href="#path3_stroke" transform="translate(1676.26 -107.125)" fill="#444444"/>
</g>
<g id="Trac&#195;&#169;_216">
<use xlink:href="#path4_fill" transform="translate(1679.18 -115.542)" fill="#444444"/>
<use xlink:href="#path5_stroke" transform="translate(1679.18 -115.542)" fill="#444444"/>
</g>
<g id="Trac&#195;&#169;_217">
<use xlink:href="#path6_fill" transform="translate(1679.18 -101.34)" fill="#444444"/>
<use xlink:href="#path7_stroke" transform="translate(1679.18 -101.34)" fill="#444444"/>
</g>
<g id="Trac&#195;&#169;_218">
<use xlink:href="#path8_fill" transform="translate(1682.6 -120.5)" fill="#444444"/>
<use xlink:href="#path9_stroke" transform="translate(1682.6 -120.5)" fill="#444444"/>
</g>
<g id="Rectangle_18">
<use xlink:href="#path10_fill" transform="translate(1689.44 -120.304)" fill="#444444"/>
<use xlink:href="#path11_stroke" transform="translate(1689.44 -120.304)" fill="#444444"/>
</g>
</g>
</g>
<defs>
<path id="path0_fill" fill-rule="evenodd" d="M 0 13.6C 0 21.1111 6.08887 27.2 13.6001 27.2C 17.2073 27.2013 20.6672 25.7689 23.218 23.2181C 25.7688 20.6673 27.2014 17.2074 27.2 13.6C 27.2 6.08893 21.1111 0 13.6001 0C 6.08887 0 0 6.08893 0 13.6ZM 0.420898 13.6C 0.420898 6.32143 6.32129 0.420998 13.5999 0.420998C 20.8738 0.432564 26.7673 6.32623 26.7788 13.6C 26.7788 20.8786 20.8784 26.779 13.5999 26.779C 6.32129 26.779 0.420898 20.8786 0.420898 13.6Z"/>
<path id="path1_stroke" d="M 13.6001 27.2L 13.6003 26.7L 13.6001 26.7L 13.6001 27.2ZM 27.2 13.6L 26.7 13.6L 26.7 13.6002L 27.2 13.6ZM 13.5999 0.420998L 13.6006 -0.0790024L 13.5999 -0.0790024L 13.5999 0.420998ZM 26.7788 13.6L 27.2788 13.6L 27.2788 13.5992L 26.7788 13.6ZM 13.6001 26.7C 6.36501 26.7 0.5 20.8349 0.5 13.6L -0.5 13.6C -0.5 21.3872 5.81273 27.7 13.6001 27.7L 13.6001 26.7ZM 22.8645 22.8646C 20.4075 25.3215 17.0748 26.7013 13.6003 26.7L 13.5999 27.7C 17.3398 27.7014 20.927 26.2163 23.5716 23.5717L 22.8645 22.8646ZM 26.7 13.6002C 26.7014 17.0749 25.3214 20.4076 22.8645 22.8646L 23.5716 23.5717C 26.2162 20.9271 27.7015 17.3399 27.7 13.5998L 26.7 13.6002ZM 13.6001 0.5C 20.8349 0.5 26.7 6.36507 26.7 13.6L 27.7 13.6C 27.7 5.81279 21.3872 -0.5 13.6001 -0.5L 13.6001 0.5ZM 0.5 13.6C 0.5 6.36507 6.36501 0.5 13.6001 0.5L 13.6001 -0.5C 5.81273 -0.5 -0.5 5.81279 -0.5 13.6L 0.5 13.6ZM 13.5999 -0.0790024C 6.04514 -0.0790024 -0.0791016 6.04529 -0.0791016 13.6L 0.920898 13.6C 0.920898 6.59757 6.59743 0.920998 13.5999 0.920998L 13.5999 -0.0790024ZM 27.2788 13.5992C 27.2669 6.04992 21.1501 -0.0669975 13.6006 -0.0790017L 13.5991 0.920997C 20.5975 0.932125 26.2678 6.60255 26.2788 13.6008L 27.2788 13.5992ZM 13.5999 27.279C 21.1546 27.279 27.2788 21.1547 27.2788 13.6L 26.2788 13.6C 26.2788 20.6024 20.6023 26.279 13.5999 26.279L 13.5999 27.279ZM -0.0791016 13.6C -0.0791016 21.1547 6.04514 27.279 13.5999 27.279L 13.5999 26.279C 6.59743 26.279 0.920898 20.6024 0.920898 13.6L -0.0791016 13.6Z"/>
<path id="path2_fill" d="M 0 0L 26.919 0L 26.919 0.421L 0 0.421L 0 0Z"/>
<path id="path3_stroke" d="M 0 0L 0 -0.5L -0.5 -0.5L -0.5 0L 0 0ZM 26.919 0L 27.419 0L 27.419 -0.5L 26.919 -0.5L 26.919 0ZM 26.919 0.421L 26.919 0.921L 27.419 0.921L 27.419 0.421L 26.919 0.421ZM 0 0.421L -0.5 0.421L -0.5 0.921L 0 0.921L 0 0.421ZM 0 0.5L 26.919 0.5L 26.919 -0.5L 0 -0.5L 0 0.5ZM 26.419 0L 26.419 0.421L 27.419 0.421L 27.419 0L 26.419 0ZM 26.919 -0.079L 0 -0.079L 0 0.921L 26.919 0.921L 26.919 -0.079ZM 0.5 0.421L 0.5 0L -0.5 0L -0.5 0.421L 0.5 0.421Z"/>
<path id="path4_fill" d="M 10.293 2.921C 8.9391 2.9137 7.58826 2.79159 6.255 2.556C 4.02041 2.12967 1.89368 1.26061 0 0C 0.720302 0.254391 1.42343 0.555016 2.105 0.9C 3.53034 1.48989 5.0158 1.92245 6.535 2.19C 11.4264 2.9848 16.4433 2.34283 20.977 0.342C 17.6618 2.01311 14.0054 2.89573 10.293 2.921Z"/>
<path id="path5_stroke" d="M 6.255 2.556L 6.16129 3.04719L 6.168 3.04837L 6.255 2.556ZM 0 0L 0.166507 -0.471461L -0.27707 0.416211L 0 0ZM 2.105 0.9L 1.8792 1.34611L 1.89619 1.35471L 1.9138 1.362L 2.105 0.9ZM 6.535 2.19L 6.44827 2.68247L 6.45481 2.68353L 6.535 2.19ZM 20.977 0.342L 21.2021 0.788482L 20.7751 -0.115433L 20.977 0.342ZM 10.2957 2.42101C 8.96298 2.41427 7.65433 2.29598 6.342 2.06363L 6.168 3.04837C 7.52219 3.28721 8.91523 3.41313 10.2903 3.42099L 10.2957 2.42101ZM 6.3487 2.06486C 4.16253 1.65029 2.12794 0.818892 0.27707 -0.416211L -0.27707 0.416211C 1.65941 1.70234 3.87828 2.60904 6.1613 3.04714L 6.3487 2.06486ZM -0.166507 0.471461C 0.538672 0.720235 1.21214 1.00818 1.8792 1.34611L 2.3308 0.453891C 1.63472 0.101855 0.901932 -0.211453 0.166507 -0.471461L -0.166507 0.471461ZM 1.9138 1.362C 3.36459 1.96162 4.90237 2.40942 6.44828 2.68242L 6.62172 1.69758C 5.12922 1.43549 3.69608 1.01816 2.2962 0.438002L 1.9138 1.362ZM 6.45481 2.68353C 11.4179 3.48473 16.5774 2.82452 21.1789 0.799434L 20.7751 -0.115433C 16.3093 1.86114 11.4348 2.48487 6.61519 1.69647L 6.45481 2.68353ZM 20.7519 -0.104482C 17.4895 1.54375 13.9447 2.39943 10.2896 2.42101L 10.2964 3.42099C 14.0662 3.39202 17.8342 2.48247 21.2021 0.788482L 20.7519 -0.104482Z"/>
<path id="path6_fill" d="M 20.777 2.9924C 16.4025 0.70478 11.3978 -0.0832438 6.532 0.7494C 5.0128 1.01695 3.52734 1.44951 2.102 2.0394C 1.54713 2.3246 0.976166 2.57736 0.392 2.7964L 0.168 2.7964L 0 2.6564C 1.92044 1.48081 4.05553 0.698977 6.281 0.3564C 11.2727 -0.585046 16.4363 0.353908 20.777 2.9924Z"/>
<path id="path7_stroke" d="M 6.532 0.7494L 6.44766 0.256558L 6.44528 0.256978L 6.532 0.7494ZM 2.102 2.0394L 1.9108 1.5774L 1.89176 1.58528L 1.87343 1.5947L 2.102 2.0394ZM 0.392 2.7964L 0.392 3.2964L 0.482657 3.2964L 0.567544 3.26457L 0.392 2.7964ZM 0.168 2.7964L -0.152092 3.18051L -0.0130251 3.2964L 0.168 3.2964L 0.168 2.7964ZM 0 2.6564L -0.261046 2.22996L -0.855839 2.59405L -0.320092 3.04051L 0 2.6564ZM 6.281 0.3564L 6.35707 0.850579L 6.36539 0.849298L 6.37367 0.847738L 6.281 0.3564ZM 21.0087 2.54933C 16.5593 0.230006 11.3945 -0.583233 6.44767 0.256563L 6.61633 1.24224C 11.4012 0.416745 16.2457 1.17955 20.5453 3.43547L 21.0087 2.54933ZM 6.44528 0.256978C 4.89937 0.529984 3.36159 0.97778 1.9108 1.5774L 2.2932 2.5014C 3.69308 1.92124 5.12622 1.50391 6.61872 1.24182L 6.44528 0.256978ZM 1.87343 1.5947C 1.33155 1.87347 0.787115 2.11448 0.216456 2.32823L 0.567544 3.26457C 1.16522 3.04025 1.7627 2.77574 2.33057 2.4841L 1.87343 1.5947ZM 0.392 2.2964L 0.168 2.2964L 0.168 3.2964L 0.392 3.2964L 0.392 2.2964ZM 0.488092 2.41229L 0.320092 2.27229L -0.320092 3.04051L -0.152092 3.18051L 0.488092 2.41229ZM 0.261046 3.08284C 2.13799 1.931 4.18014 1.1832 6.35707 0.850579L 6.20493 -0.137779C 3.93092 0.214754 1.70288 1.03063 -0.261046 2.22996L 0.261046 3.08284ZM 6.37367 0.847738C 11.2744 -0.0850489 16.2587 0.821322 20.5173 3.41966L 21.0367 2.56514C 16.6138 -0.113506 11.2711 -1.08504 6.18833 -0.134938L 6.37367 0.847738Z"/>
<path id="path8_fill" fill-rule="evenodd" d="M 0.00366211 13.544C 0.00366211 21.087 3.16968 27.2 7.06958 27.2C 10.9678 27.2 14.1367 21.087 14.1357 13.572C 14.21 10.2805 13.5188 7.0168 12.1167 4.038C 10.7698 1.43 8.97559 0 7.06958 0C 5.16357 0 3.36865 1.43 2.02271 4.01C 0.633545 6.99319 -0.0568848 10.2538 0.00366211 13.544ZM 0.423828 13.544C 0.423828 6.31 3.39673 0.420998 7.06982 0.420998C 10.7437 0.420998 13.7158 6.309 13.7158 13.544C 13.783 16.7867 13.1016 20.0013 11.7246 22.938C 10.4626 25.406 8.80859 26.78 7.06982 26.78C 5.33081 26.78 3.67676 25.438 2.41479 22.938C 1.03784 20.0013 0.356445 16.7867 0.423828 13.544Z"/>
<path id="path9_stroke" d="M 0.00366211 13.544L 0.503747 13.544L 0.503577 13.5348L 0.00366211 13.544ZM 14.1357 13.572L 13.6357 13.5607L 13.6357 13.5721L 14.1357 13.572ZM 12.1167 4.038L 12.5691 3.82506L 12.5652 3.81674L 12.561 3.80857L 12.1167 4.038ZM 2.02271 4.01L 1.5794 3.77874L 1.57419 3.78872L 1.56944 3.79893L 2.02271 4.01ZM 0.423828 13.544L 0.923828 13.5544L 0.923828 13.544L 0.423828 13.544ZM 13.7158 13.544L 13.2157 13.544L 13.2159 13.5543L 13.7158 13.544ZM 11.7246 22.938L 12.1698 23.1656L 12.1737 23.158L 12.1773 23.1503L 11.7246 22.938ZM 2.41479 22.938L 1.96209 23.1503L 1.96517 23.1568L 1.96844 23.1633L 2.41479 22.938ZM 7.06958 26.7C 5.40208 26.7 3.76656 25.3827 2.51821 22.9708C 1.28296 20.5842 0.503662 17.2522 0.503662 13.544L -0.496338 13.544C -0.496338 17.3788 0.307374 20.8748 1.63011 23.4305C 2.93974 25.9608 4.83718 27.7 7.06958 27.7L 7.06958 26.7ZM 13.6357 13.5721C 13.6395 17.2726 12.8751 20.5635 11.621 22.974C 10.3722 25.3826 8.73636 26.7 7.06958 26.7L 7.06958 27.7C 9.30099 27.7 11.1987 25.9609 12.5087 23.4343C 13.8133 20.9095 14.633 17.3864 14.6357 13.5719L 13.6357 13.5721ZM 11.6643 4.25094C 13.0449 7.17613 13.7121 10.327 13.6359 13.5607L 14.6356 13.5833C 14.7078 10.2341 13.9927 6.85747 12.5691 3.82506L 11.6643 4.25094ZM 7.06958 0.5C 8.69985 0.5 10.3611 1.72839 11.6724 4.26744L 12.561 3.80857C 11.1784 1.13161 9.25132 -0.5 7.06958 -0.5L 7.06958 0.5ZM 2.46601 4.24127C 3.77616 1.72989 5.43812 0.5 7.06958 0.5L 7.06958 -0.5C 4.88903 -0.5 2.96115 1.13011 1.5794 3.77874L 2.46601 4.24127ZM 0.503577 13.5348C 0.440854 10.3013 1.10781 7.15153 2.47597 4.22107L 1.56944 3.79893C 0.15928 6.83484 -0.554624 10.2063 -0.496253 13.5532L 0.503577 13.5348ZM 7.06982 -0.0790024C 4.94483 -0.0790024 3.15352 1.6124 1.92327 4.04402C 0.696614 6.47687 -0.0730731 9.87142 -0.0761719 13.544L 0.923828 13.544C 0.920729 9.98258 1.63749 6.81562 2.81556 4.49547C 3.99004 2.1741 5.52172 0.920998 7.06982 0.920998L 7.06982 -0.0790024ZM 14.2158 13.544C 14.2127 9.87093 13.4432 6.47639 12.2167 4.04365C 10.9865 1.61208 9.19514 -0.0790024 7.06982 -0.0790024L 7.06982 0.920998C 8.61834 0.920998 10.15 2.17392 11.3244 4.49509C 12.5023 6.81511 13.2189 9.98207 13.2158 13.544L 14.2158 13.544ZM 12.1773 23.1503C 13.5756 20.1603 14.2807 16.8337 14.2157 13.5336L 13.2159 13.5543C 13.2852 16.7398 12.6275 19.8423 11.2719 22.7257L 12.1773 23.1503ZM 7.06982 27.28C 9.09398 27.28 10.8785 25.6911 12.1698 23.1656L 11.2794 22.7104C 10.0468 25.1209 8.5232 26.28 7.06982 26.28L 7.06982 27.28ZM 1.96844 23.1633C 3.26225 25.7264 5.04763 27.28 7.06982 27.28L 7.06982 26.28C 5.61399 26.28 4.09127 25.1496 2.86115 22.7127L 1.96844 23.1633ZM -0.076064 13.5336C -0.141345 16.8337 0.563803 20.1603 1.96209 23.1503L 2.8675 22.7257C 1.51188 19.8423 0.854236 16.7398 0.92372 13.5544L -0.076064 13.5336Z"/>
<path id="path10_fill" d="M 0 0L 0.421 0L 0.421 26.807L 0 26.807L 0 0Z"/>
<path id="path11_stroke" d="M 0 0L 0 -0.5L -0.5 -0.5L -0.5 0L 0 0ZM 0.421 0L 0.921 0L 0.921 -0.5L 0.421 -0.5L 0.421 0ZM 0.421 26.807L 0.421 27.307L 0.921 27.307L 0.921 26.807L 0.421 26.807ZM 0 26.807L -0.5 26.807L -0.5 27.307L 0 27.307L 0 26.807ZM 0 0.5L 0.421 0.5L 0.421 -0.5L 0 -0.5L 0 0.5ZM -0.079 0L -0.079 26.807L 0.921 26.807L 0.921 0L -0.079 0ZM 0.421 26.307L 0 26.307L 0 27.307L 0.421 27.307L 0.421 26.307ZM 0.5 26.807L 0.5 0L -0.5 0L -0.5 26.807L 0.5 26.807Z"/>
</defs>
</svg>
