<svg width="19" height="19" viewBox="0 0 19 19" version="1.1" xmlns="http://www.w3.org/2000/svg" xmlns:xlink="http://www.w3.org/1999/xlink">
<title>Localisation</title>
<desc>Created using Figma</desc>
<g id="Canvas" transform="translate(-6065 216)">
<g id="Localisation">
<g id="crosshairneue">
<g id="Ellipse 9">
<use xlink:href="#path0_fill" transform="translate(6071.24 -209.8)" fill="#444444"/>
</g>
<g id="Path 254">
<use xlink:href="#path1_fill" transform="translate(6066.71 -214.33)" fill="#444444"/>
</g>
<g id="Rectangle 48">
<use xlink:href="#path2_fill" transform="translate(6073.85 -216)" fill="#444444"/>
</g>
<g id="Rectangle 49">
<use xlink:href="#path2_fill" transform="translate(6073.85 -201.616)" fill="#444444"/>
</g>
<g id="Rectangle 50">
<use xlink:href="#path2_fill" transform="matrix(6.12323e-17 1 -1 6.12323e-17 6083.8 -207.179)" fill="#444444"/>
</g>
<g id="Rectangle 51">
<use xlink:href="#path2_fill" transform="matrix(6.12323e-17 1 -1 6.12323e-17 6069.34 -207.19)" fill="#444444"/>
</g>
</g>
</g>
</g>
<defs>
<path id="path0_fill" d="M 3.152 6.304C 4.8928 6.304 6.304 4.8928 6.304 3.152C 6.304 1.4112 4.8928 0 3.152 0C 1.4112 0 0 1.4112 0 3.152C 0 4.8928 1.4112 6.304 3.152 6.304Z"/>
<path id="path1_fill" d="M 7.682 6.51171e-06C 6.16377 -0.00197112 4.67909 0.446555 3.4159 1.2888C 2.15272 2.13105 1.16783 3.32915 0.585913 4.73144C 0.00399858 6.13372 -0.148775 7.67713 0.146932 9.16628C 0.442639 10.6554 1.17353 12.0234 2.24708 13.0969C 3.32063 14.1705 4.68857 14.9014 6.17772 15.1971C 7.66687 15.4928 9.21029 15.34 10.6126 14.7581C 12.0149 14.1762 13.213 13.1913 14.0552 11.9281C 14.8974 10.6649 15.346 9.18023 15.344 7.66201C 15.3416 5.63065 14.5336 3.68317 13.0972 2.24678C 11.6608 0.810397 9.71335 0.00238841 7.682 6.51171e-06ZM 7.682 14.2C 6.39365 14.2 5.13423 13.818 4.06301 13.1022C 2.99179 12.3864 2.15687 11.3691 1.66385 10.1788C 1.17082 8.98853 1.04182 7.67878 1.29316 6.41519C 1.54451 5.1516 2.1649 3.99091 3.0759 3.07991C 3.9869 2.16891 5.14759 1.54852 6.41118 1.29717C 7.67477 1.04583 8.98452 1.17483 10.1748 1.66786C 11.3651 2.16088 12.3824 2.9958 13.0982 4.06702C 13.814 5.13824 14.196 6.39766 14.196 7.68601C 14.1939 9.41298 13.5069 11.0686 12.2858 12.2898C 11.0646 13.5109 9.40897 14.1979 7.682 14.2Z"/>
<path id="path2_fill" d="M 1.086 0L 0 0L 0 4.342L 1.086 4.342L 1.086 0Z"/>
</defs>
</svg>
