<?xml version="1.0" encoding="UTF-8" standalone="no"?>
<!-- Created with Inkscape (http://www.inkscape.org/) -->

<svg
   xmlns:dc="http://purl.org/dc/elements/1.1/"
   xmlns:cc="http://creativecommons.org/ns#"
   xmlns:rdf="http://www.w3.org/1999/02/22-rdf-syntax-ns#"
   xmlns:svg="http://www.w3.org/2000/svg"
   xmlns="http://www.w3.org/2000/svg"
   xmlns:xlink="http://www.w3.org/1999/xlink"
   xmlns:sodipodi="http://sodipodi.sourceforge.net/DTD/sodipodi-0.dtd"
   xmlns:inkscape="http://www.inkscape.org/namespaces/inkscape"
   width="400"
   height="200"
   viewBox="0 0 400 200"
   id="svg2"
   version="1.1"
   inkscape:version="0.91 r13725"
   sodipodi:docname="smapsprint.svg"
   inkscape:export-filename="/home/tproduit/web/myapp/public/icons/smapspint.png"
   inkscape:export-xdpi="90"
   inkscape:export-ydpi="90">
  <defs
     id="defs4">
    <linearGradient
       inkscape:collect="always"
       id="linearGradient4327">
      <stop
         style="stop-color:#ffffff;stop-opacity:1;"
         offset="0"
         id="stop4329" />
      <stop
         style="stop-color:#ffffff;stop-opacity:0;"
         offset="1"
         id="stop4331" />
    </linearGradient>
    <radialGradient
       inkscape:collect="always"
       xlink:href="#linearGradient4327"
       id="radialGradient4333"
       cx="36.333076"
       cy="1036.6124"
       fx="36.333076"
       fy="1036.6124"
       r="6.457871"
       gradientTransform="matrix(8.2662191,-0.19990211,0.11602802,4.7979192,-151.74556,-3995.2962)"
       gradientUnits="userSpaceOnUse" />
  </defs>
  <sodipodi:namedview
     id="base"
     pagecolor="#ffffff"
     bordercolor="#666666"
     borderopacity="1.0"
     inkscape:pageopacity="0.0"
     inkscape:pageshadow="2"
     inkscape:zoom="0.9899495"
     inkscape:cx="145.32733"
     inkscape:cy="190.23697"
     inkscape:document-units="px"
     inkscape:current-layer="g4360"
     showgrid="false"
     units="px"
     inkscape:window-width="1280"
     inkscape:window-height="1000"
     inkscape:window-x="2560"
     inkscape:window-y="74"
     inkscape:window-maximized="1" />
  <metadata
     id="metadata7">
    <rdf:RDF>
      <cc:Work
         rdf:about="">
        <dc:format>image/svg+xml</dc:format>
        <dc:type
           rdf:resource="http://purl.org/dc/dcmitype/StillImage" />
        <dc:title></dc:title>
      </cc:Work>
    </rdf:RDF>
  </metadata>
  <g
     inkscape:label="Layer 1"
     inkscape:groupmode="layer"
     id="layer1"
     transform="translate(0,-852.3622)">
    <g
       id="g4187"
       transform="matrix(0.9539854,0,0,0.9539854,1.009787,36.102482)"
       style="stroke:#ffffff;stroke-width:2;stroke-miterlimit:4;stroke-dasharray:none;stroke-opacity:1" />
    <g
       id="g4360"
       transform="translate(-0.13300108,-1.0555857)">
      <rect
         style="opacity:1;fill:#ffffff;fill-opacity:1;stroke:none;stroke-width:2;stroke-linecap:round;stroke-linejoin:round;stroke-miterlimit:4;stroke-dasharray:none;stroke-opacity:1"
         id="rect4147-1-4"
         width="112.65157"
         height="37.463459"
         x="152.0914"
         y="867.07214"
         ry="13.077179"
         transform="matrix(0.9539854,0,0,0.9539854,1.009787,36.10248)" />
      <rect
         style="opacity:1;fill:#ff0000;fill-opacity:1;stroke:#ffffff;stroke-width:9.83810616;stroke-linecap:round;stroke-linejoin:round;stroke-miterlimit:4;stroke-dasharray:none;stroke-opacity:1"
         id="rect4147"
         width="236.5658"
         height="160.13545"
         x="90.444839"
         y="890.99567"
         ry="29.773394"
         transform="matrix(0.9539854,0,0,0.9539854,1.009787,36.10248)" />
      <path
         inkscape:export-ydpi="90"
         inkscape:export-xdpi="90"
         style="opacity:1;fill:#ffffff;fill-opacity:1;stroke:none;stroke-width:2;stroke-linecap:round;stroke-linejoin:round;stroke-miterlimit:4;stroke-dasharray:none;stroke-opacity:1"
         id="path4164"
         sodipodi:type="arc"
         sodipodi:cx="208.72772"
         sodipodi:cy="971.06311"
         sodipodi:rx="61.491295"
         sodipodi:ry="61.491295"
         sodipodi:start="0"
         sodipodi:end="6.2824697"
         sodipodi:open="true"
         d="m 270.21902,971.06311 a 61.491295,61.491295 0 0 1 -61.4803,61.49129 61.491295,61.491295 0 0 1 -61.50229,-61.46929 61.491295,61.491295 0 0 1 61.45829,-61.51329 61.491295,61.491295 0 0 1 61.52428,61.44729"
         transform="matrix(0.9539854,0,0,0.9539854,1.009787,36.10248)" />
      <rect
         style="opacity:1;fill:#ff0000;fill-opacity:1;stroke:none;stroke-width:2;stroke-linecap:round;stroke-linejoin:round;stroke-miterlimit:4;stroke-dasharray:none;stroke-opacity:1"
         id="rect4147-1"
         width="92.465027"
         height="33.115589"
         x="162.80579"
         y="876.23413"
         ry="11.55949"
         transform="matrix(0.9539854,0,0,0.9539854,1.009787,36.10248)" />
      <g
         transform="matrix(1.5611854,0,0,1.5611854,153.7043,918.27948)"
         id="g4304"
         style="stroke:#ffffff;stroke-width:2;stroke-miterlimit:4;stroke-dasharray:none;stroke-opacity:1">
        <g
           id="g4260">
          <g
             id="g4262">
            <circle
               style="fill:#010002"
               cx="19.969"
               cy="6.0079999"
               r="6.0079999"
               id="circle4264" />
            <path
               inkscape:connector-curvature="0"
               style="fill:#010002"
               d="m 53.99,37.782 c -6.299,3.684 -10.077,-1.721 -12.923,-6.924 -0.124,-0.501 -0.307,-1.009 -0.57,-1.522 -2.203,-4.285 -4.502,-8.527 -6.908,-12.703 4.699,-1.499 8.996,-0.13 12.375,4.602 2.748,3.85 9.176,0.158 6.396,-3.737 C 45.82,8.339 36.068,6.066 26.305,11.862 c -0.406,0.241 -0.732,0.521 -0.993,0.828 -0.148,0.058 -0.295,0.122 -0.44,0.19 -0.397,0.08 -0.806,0.233 -1.219,0.478 -6.069,3.603 -11.709,2.92 -15.921,-2.98 -2.75,-3.85 -9.176,-0.158 -6.395,3.737 5.374,7.527 12.919,10.392 20.857,7.96 2.491,4.278 4.856,8.632 7.128,13.032 -3.358,1.717 -6.467,3.853 -9.357,6.368 -0.125,0.109 -0.236,0.222 -0.341,0.335 -0.629,0.323 -1.184,0.868 -1.575,1.676 -1.942,4.015 -3.886,8.028 -5.828,12.043 -2.086,4.312 4.626,7.438 6.704,3.146 1.846,-3.814 3.694,-7.633 5.541,-11.445 0.25,-0.141 0.498,-0.309 0.736,-0.518 3.352,-2.918 7.191,-5.283 11.396,-6.748 0.207,-0.072 0.396,-0.158 0.574,-0.254 5.148,6.533 12.33,10.131 20.93,5.105 4.531,-2.648 0.433,-9.689 -4.112,-7.033 z"
               id="path4266" />
          </g>
        </g>
        <g
           id="g4268" />
        <g
           id="g4270" />
        <g
           id="g4272" />
        <g
           id="g4274" />
        <g
           id="g4276" />
        <g
           id="g4278" />
        <g
           id="g4280" />
        <g
           id="g4282" />
        <g
           id="g4284" />
        <g
           id="g4286" />
        <g
           id="g4288" />
        <g
           id="g4290" />
        <g
           id="g4292" />
        <g
           id="g4294" />
        <g
           id="g4296" />
      </g>
      <path
         sodipodi:nodetypes="cccccccc"
         inkscape:connector-curvature="0"
         id="path4325"
         d="m 265.58495,956.0661 31.43544,5.57991 -27.31511,4.92996 51.00465,5.85027 -51.07008,5.31022 27.78111,7.20817 -32.75679,4.77152 z"
         style="fill:url(#radialGradient4333);fill-opacity:1;fill-rule:evenodd;stroke:none;stroke-width:1.04823411px;stroke-linecap:butt;stroke-linejoin:miter;stroke-miterlimit:4;stroke-dasharray:none;stroke-opacity:1"
         transform="matrix(0.9539854,0,0,0.9539854,1.009787,36.10248)" />
      <rect
         ry="10.474788"
         y="901.4928"
         x="263.22714"
         height="20.949575"
         width="35.195286"
         id="rect4211"
         style="opacity:1;fill:#ffffff;fill-opacity:1;stroke:none;stroke-width:0;stroke-linecap:round;stroke-linejoin:round;stroke-miterlimit:4;stroke-dasharray:none;stroke-opacity:1" />
    </g>
  </g>
</svg>
