{"texts":
  {
    "visit":
    {
      "fr": "Visiter",
      "en": "Visit",
      "de": "Besichtigen",
      "it": "Visitare"
    }
    ,
    "participate":
    {
      "fr": "Participer",
      "en": "Participate",
      "de": "Teilnehmen",
      "it": "Partecipare"
    }
    ,
    "login":
    {
      "fr": "Login",
      "en": "Login",
      "de": "Login",
      "it": "Login"
    }
    ,
    "tutorial":
      {
        "fr": "Tutoriel",
        "en": "Tutorial",
        "de": "Tutorial",
        "it": "Tutorial"
      }
    ,
    "geolocProblems":
      {
        "fr": "Problèmes de géolocalisation",
        "en": "Georeferencing problems",
        "de": "Georefenzierungsprobleme",
        "it": "Problemi di geolocalizzazione"
      }
    ,
    "frequentErrors":
      {
        "fr": "Erreurs fréquentes",
        "en": "Frequent errors",
        "de": "Häufige Fehler",
        "it": "Errori frequenti"
      }
    ,
    "tuto1_title":
      {
        "fr": "1. Choisir une image",
        "en": "1. Chose an image",
        "de": "1. Ein Bild wählen",
        "it": "1. Scegliere un'immagine"
      }
    ,
    "tuto1_text":
      {
        "fr": "Va sur <a ng-href = '/map/?geolocalized=false'> la carte </a>.<br>Navigue dans la carte vers les lieux que tu connais bien.<br>Clique sur une image que tu reconnais et clique sur <b>Commencer la géolocalisation</b>.",
        "en": "Go to <a ng-href = '/map/?geolocalized=false'> the map </a>.<br>Move and zoom in the map to go to the place you are familliar with.<br>Click on a picture and chose <b>start the georeferencing</b>.",
        "de": "Gehen Sie zur <a ng-href = '/map/?geolocalized=false'> Karte </a>.<br>Bewegen und zoomen Sie die Karte bis Sie sich an einem Ort befinden, den Sie kennen.<br>Klicken Sie auf ein Bild und <b>starten Sie die Georeferenzierung</b>.",
        "it": "Vai alla <a ng-href = '/map/?geolocalized=false'> carta </a>.<br>Naviga nella carta verso dei luoghi che conosci bene.<br>Fai un click su un'immagine che riconosci e fai un click su<b>Cominciare la geolocalizzazione</b>."
      }
    ,
    "tuto2_title":
      {
        "fr": "2. Définir la position du photographe",
        "en": "2. Provide the photographer's location",
        "de": "2. Definition des Aufnahmestandortes",
        "it": "2. Definire la posizione del fotografo"
      }
    ,
    "tuto2_text":
      {
        "fr": "Bouge le marker sur la position du photographe. Attention la position du photographe n'est pas le lieu du contenu de l'image.<br>Clique sur <b>Valider l'étape</b>",
        "en": "Move the marker on the photographer location. Attention the photographer location is different from the location visible in the image.<br>Once your are done, click on <b>validate the step.</b>",
        "de": "Bewegen Sie das Symbol bis zum Aufnahmestandort. Beachten Sie, dass der Aufnahmestandort nicht dem Bildinhalt entspricht. <br>Sobald Sie fertig bist, klicken Sie auf<b>Position bestätigen</b>",
        "it": "Muovi il segnalino sulla posizione del fotografo. Attenzione la posizione del fotografo non é il luogo del contenuto dell'immagine.<br>Fai un click su <b>Confermare la fase.</b>"
      }
    ,
    "tuto3_title":
      {
        "fr": "3. Définir la direction de l'image",
        "en": "3. Provide the image's direction",
        "de": "3. Definition der Blickrichtung",
        "it": "3. Definire la direzione dell'immagine"
      }
    ,
    "tuto3_text":
      {
        "fr": "La flèche jaune indique la direction de l'image.<br>Clique sur la carte pour définir la direction de l'image.<br>Clique sur <b>Valider l'étape.</b>",
        "en": "The yellow arrow shows the image direction.<br>Click on the map to provide the image direction.<br>Once your are done, click on <b>validate the step.</b>",
        "de": "Der gelbe Pfeil gibt die Blickrichtung an.<br>Klicken Sie auf die Karte und geben Sie die Blickrichtung an.<br>Sobald Sie fertig sind, klicken Sie auf <b>Blickrichtung bestätigen</b>",
        "it": "La freccia gialla indica la direzione dell'immagine.<br>Fai un click sulla carta per definire la direzione dell'immagine.<br>fai un click su<b>Confermare la fase.</b>"
      }
    ,
    "tuto4_title":
      {
        "fr": "4. Aligner l'image avec le paysage 3D",
        "en": "4. Align the image with the 3D landscape",
        "de": "4. Abstimmung des Bildes mit dem virtuellen Globus",
        "it": "4. Allineare l'immagine col paesaggio 3D"
      }
    ,
    "tuto4_text1":
      {
        "fr": "<h3>Alignement visuel</h3><p>Si le paysage 3D est trop éloigné de l'image, tu peux revenir en arrière ou utiliser les boutons de navigation.</p>",
        "en": "<h3>Visually align the 3D landscape</h3><p>If the 3D landscape is too far from the photo, you can either come back in previous steps or move the camera with the bottom right icons.</p>",
        "de": "<h3>Visuelle Abgleichung</h3><p>Wenn die 3D-Landschaft zu weit vom Bild entfernt ist, können Sie entweder zu den vorhergehenden Schritten zurückkehren oder die Kameraposition mit den Navigationstasten unten rechts ändern.</p>",
        "it": "<h3>Allineamento visuale</h3><p>Se il paesaggio 3D é troppo lontano dall'immagine, puoi ritornare indietro o utilizzare il tasto di navigazione.</p>"
      }
    ,
    "tuto4_text2":
      {
        "fr": "<h3>Calcul de la position et orientation de l'image</h3><p>Pour calculer la position et l'orientation de l'image il faut fournir des points de correspondances: des points similaires que tu cliques dans l'image et dans le paysage 3D. Des bonnes correspondances sont des points remarquables, par exemple des sommets, des carrefours, des coins de bâtiments (au niveau du sol), des rivières etc. Quatre points sont nécessaire pour calculer la position et l'orientation, mais six points sont nécessaire pour les valider",
        "en": "<h3> Compute the photo location and orientation</h3><p>To compute the photo position and orientation, we need anchors points: similar locations that you will click in the picture and in the 3D landscape. Good anchor points are remarkable point locations. Usually, we use summits, crossroads, building corner (at the ground level), rivers etc. Four points are required to compute the photo position and orientation, but six points are required to validate the position.</p>",
        "de": "<h3> Berechnung der Position und des Blickwinkels</h3><p>Um die Position und den Blickwinkel des Bildes zu berechnen, brauchen wir Punktepaare; d.h. Punkte die sowohl im Bild als auch in der 3D-Landschaft sichtbar sind. Gute Punktepaare sind gut sichtbare Merkmale, wie z.B. Gipfel, Kreuzungen, Gebäudeecken (am Boden), Flüsse usw. Vier Punkte werden benötigt, um Aufnahmestandort und Blickwinkel berechnen zu können. Sechs Punkte werden benötigt, um die Position bestätigen zu können.</p>",
        "it": "<h3>Calcola la posizione e l'orientamento dell'immagine</h3><p>Per calcolare la posizione e l'orientamento dell'immagine é necessario fornire dei punti di riscontro: dei punti identici che selezioni sull'immagine e nel paesaggio 3D. Dei buoni riscontri sono dei punti facilmente reperibili, come per esempio le cime delle montagne, gli incroci delle strade, gli angoli degli edifici(sul suolo), dei fiumi, ecc. Normalmente, quattro punti sono necessari per calcolare la posizione e l'orientamento dell'immagine, ma per validare la fase ne servono sei</p>"
      }
    ,
    "tuto4_text3":
      {
        "fr": "<h3>Améliore l'alignement</h3><lu><li><b>Définis plus de correspondances:</b> Pour améliorer la précision de la position et de l'orientation, clique sur autant de points que possible.</li><li><b>Répartis les points:</b> Idéalement, il faudrait mettre un point dans chaque coin de l'image. Si ce n'est pas possible, répartis les au mieux.</li><li><b>Bouge les points:</b> Tu peux bouger un point sélectionné (jaune). Pour sélectionner un point il faut cliquer dessus.</li><li><b>Contrôle les points imprécis:</b>La couleur des points indique leur précision. Il faut vérifier les points imprécis (orange ou rouge).</li></lu>",
        "en": "<h3> Improve the photo location and orientation</h3><lu><li><b>Provide many points:</b> To improve the position and orientation accuracy add as many correspondences as possible.</li><li><b>Scatter the points:</b> Ideally, you should provide a point in each corner of the image, if it is not possible try to scatter them in the entire image.</li><li><b>Move the points:</b> You can move a point if it is selected (yellow).</li><li><b>Check inaccurate points:</b>The color of the points indicates their accuracy. You should check, move or delete inaccurate points (orange or red).</li></lu>",
        "de": "<h3> Verbesserung der Position und den Blickwinkel des Bildes<h3><lu><li><b>Geben Sie möglichst viele Punkte an:</b> Um die Genauigkeit der Position und des Blickwinkel zu verbessern, geben Sie so viele Punktepaare wie möglich an.</li><li><b>Verteilen Sie die Punkte:</b> Idealerweise sollte in jeder Ecke des Bildes ein Punkt vorhanden sein. Wenn das nicht möglich ist, versuchen Sie die Punkte über das ganze Bild zu verteilen.</li><li><b>Verschieben Sie die Punkte:</b> Sie können einen Punkt verschieben, wenn er ausgewählt ist (gelb).</li><li><b>Überprüfen Sie ungenaue Punkte:</b>Die Farbe der Punkte gibt deren Genauigkeit an. Sie sollten ungenaue Punkte (orange) verschieben oder falsche Punkte (rot) löschen.</li></lu>",
        "it": "<h3> Migliora l'orientamento</h3><lu><li><b>Seleziona altri riscontri:</b> Per migliorare la posizione e l'orientamento dell'immagine seleziona piu punti possibili.</li><li><b>Ripartisci i punti:</b> Idealmente, bisognerebbe mettere un punto in ogni angolo dell'immagine. Se non è possibile, ripartiscili al meglio.</li><li><b>Muovi i punti:</b> Puoi muovere i punti se questi sono selezionati(giallo).</li><li><b>Controlla i punti imprecisi:</b>Il colore dei punti indica la loro precisione. Bisogna controllare i punti imprecisi (arancione o rosso).</li></lu>"
      }
    ,
    "tuto4_text4":
      {
        "fr": "<h3>Controleurs</h3><p>Les controleurs dans le coin en haut à droite permettent de changer la photographie aérienne: Bing Maps fournit une couverture aussi à l'extérieur de la Suisse. C'est utile pour les images qui se situent à la frontière.<br>Tu peux aussi afficher et cacher les bâtiments 3D. Attention, les bâtiments 3D ne sont pas disponibles sur toutes la Suisse.</p>",
        "en": "<h3>Controllers</h3><p>The controller on the upper right corner allows you to change the landscape aerial photo: Bing Maps provides an aerial image outside from Switzerland. It can be usefull for photos at the swiss border.<br>With this controller you can also show or hide the buildings. Attention, 3D buildings are not yet available for the entire Switzerland.</p>",
        "de": "<h3>Auswahl der Geoinformationen</h3><p>Oben rechts können Sie die verfügbaren Geoinformationslayer auswählen: Bing Maps deckt auch Gebiete ausserhalb der Schweiz ab und kann für Bilder an der Grenze sinnvoll sein. <br>Die Gebäude der Schweiz können angezeigt werden. Achtung, die 3D-Gebäude sind noch nicht für die ganze Schweiz verfügbar.</p>",
        "it": "<h3>Controllori</h3><p>I controllori nell'angolo in alto a destra permettono di cambiare la fotografia aerea: Bing Maps fornisce una copertura anche al di fuori dalla Svizzera. Questo può risultare utile per le immagini situate sui confini.<br>esiste anche la possibilità di mostrare e nascondere gli edifiI 3D. Attenzione, gli edifici 3D non sono disponibili su tutta la Svizzera</p>"
      }
    ,
    "tuto4_text5":
      {
        "fr": "<h3>Problèmes</h3><p>Tu as rencontré des problèmes? Tu trouveras  <a href='#problems'>ici</a> une solution aux problèmes fréquents.</p>",
        "en": "<h3>Problems</h3><p>Do you run into problems? Go to <a href='#problems'>this section</a> to read about frequent problems.</p>",
        "de": "<h3>Probleme</h3><p>Ist ein Problem aufgetreten? Gehen Sie zu <a href='#problems'>dieser Seite, </a> die häufige Probleme auflistet.</p>",
        "it": "<h3>Problemi</h3><p> Hai incontrato dei problemi? Troverai<a href='#problems'>qui</a> una soluzione ai problemi più frequenti.</p>"
      }
    ,
    "tuto4_text6":
      {
        "fr": "<h3>Calcul de l'orientation seulement</h3><p>Lors de la géolocalisation d'images terrestres (par exemple la collection de Swisstopo), il est souvent utile de fixer la position de la photo (par exemple sur un sommet). Dans ce cas, l'algorithme ne doit calculer que l'orientation de la photo. Il faut alors définir la position de la photo avec le marqueur de la carte et cliquer sur <b>Calculer l'orientation seulement</b>.</p>",
        "de": "<h3>Orientierungsberechnung nur</h3><p>Wenn Sie terrestrische Bilder (z.B. die Swisstopo-Sammlung) geolokalisieren, ist es oft sinnvoll, die Position des Fotos festzulegen (z.B. auf einem Scheitelpunkt). In diesem Fall sollte der Algorithmus nur die Ausrichtung des Fotos berechnen. Es ist dann notwendig, die Position des Fotos mit dem Marker der Karte zu definieren und auf <b>Nur die Ausrichtung Berechnen</b> zu klicken.</p>",
        "en": "<h3>Orientation calculation only</h3><p>When geolocating terrestrial images (e.g. the Swisstopo collection), it is often useful to fix the position of the photo (e.g. on a summit). In this case, the algorithm should only calculate the orientation of the photo. It is then necessary to define the position of the photo with the marker of the map and click on <b>Calculate the orientation only</b>.</p>",
        "it": "<h3>Solo calcolo dell'orientamento</h3><p>In caso di geolocalizzazione di immagini terrestri (ad es. collezione Swisstopo), è spesso utile fissare la posizione della foto (ad es. su una cima). In questo caso, l'algoritmo dovrebbe calcolare solo l'orientamento della foto. E' quindi necessario definire la posizione della foto con il marker della mappa e cliccare su <b>Calcola solo l'orientamento</b>.</p>"
      }
    ,
    "tuto5_title":
      {
        "fr": "5. Partage tes notes et améliore les informations",
        "en": "5. Share notes and improve known information",
        "de": "5. Verbessern Sie die Informationen",
        "it": "5. Condividi le tue note e migliora le informazioni"
      }
    ,
    "tuto5_text1":
      {
        "fr": "<h3>Suggestions</h3><p>Générallement, peu d'informations sont disponibles pour les images anciennes et parfois l'information à disposition est fausse. Tu peux suggérer une modification du titre et de la description de l'image, si ils sont faux ou incomplets.</p>",
        "en": "<h3>Suggestions</h3><p>Usually, little information is available about a picture and sometimes the known information is wrong. You can suggest a title or caption modification if it is wrong or incomplete.</p>",
        "de": "<h3>Vorschläge</h3><p>Falls Titel oder Beschreibungen falsch bzw. ungenau sind, können Sie Änderungen vorschlagen.</p>",
        "it": "<h3>Consigli</h3><p>Normalmente, sono poche le notizie disponibili per le vecchie immagini e talvolta queste si rivelano sbagliate. Puoi suggerire una modifica del titolo e della descrizione dell'immagine, se ritieni che sono imprecise, sbagliate o incomplete.</p>"
      }
    ,
    "tuto5_text2":
      {
        "fr": "<h3Notes</h3><p>Lors de la géolocalisation tu as pu remarquer des éléments particuliers. Tu peux créer et partager une ou plusieurs notes.</p>",
        "en": "<h3>Notes</h3><p>With your deep observation during the georeferencing process you may have noticed particular elements in the picture. You can create one or more notes to share them.</p>",
        "de": "<h3>Notizen</h3><p>Während des Georeferenzierungsprozesses haben Sie vielleicht spezifische Elemente im Bild entdeckt. Sie können eine oder mehrere Beobachtungen hier melden und teilen.</p>",
        "it": "<h3>Note</h3><p>Se durante la geolocalizzazione hai constatato degli elementi particolari, puoi creare e condividere una o più note</p>"
      }
    ,
    "prob1_title":
      {
        "fr": "+ Ce point de vue n'existe pas",
        "en": "+ This view point doesnt exists",
        "de": "+ Dieser Ansichtspunkt existiert nicht",
        "it": "+ Questa vista non esiste"
      }
    ,
    "prob1_text":
      {
        "fr": "Si l'image a subi un montage ou si elle est en mirroir, il est impossible de calculer sa position.<br><b>Solution:</b>Reporte ce problème en cliquant sur <b>Reporter un problème</b> en dessous de l'image.",
        "en": "If the photo was 'photoshop-ed' or mirrored, it is impossible to compute its position.<br><b>Solution:</b> Report this problem with a click on <b>Report a problem</b> on the bottom of the image.",
        "de": "Wenn das Bild eine Fotomontage oder spiegelverkehrt ist, kann die Position nicht berechnet werden. <br><b>Lösung:</b> Klicken Sie auf <b>Ein Problem melden</b> unten am Bild.",
        "it": "Se l'immagine é un fotomontaggio o se é specchiata, é impossibile calcolare la sua posizione.<br><b>Soluzione:</b> Fai un click su <b>Riporta un problema</b> in basso dell'immagine."
      }
    ,
    "prob2_title":
      {
        "fr": "+ Position invalide",
        "en": "+ Invalid position",
        "de": "+ Falsche Position",
        "it": "+ Posizione invalida"
      }
    ,
    "prob2_text":
      {
        "fr": "Notre algorithme n'arrive pas à calculer une position ou calcule une position impossible si:<ul><li><b>Les points sont incorrects:</b><br><b>Solution:</b> Contrôle les points. Supprime les points faux. Ajoute plus de points.</li><li><b>Le paysage 3D et l'image sont trop loins et différents:</b>Notre algorithme prend comme point de départ du calcul le paysage 3D. Si il est trop éloigné de la vue de l'image, l'algorithme n'arrive pas a calculer un résultat.<br><b>Solution:</b> Bouge le paysage 3D pour qu'il corresponde mieux à l'image.</li><li><b>Le point de vue est impossible:</b>Si l'image a été découpée ou est issue d'un montage, sa géométrie ne correspond pas à celle d'une image normale, l'algorithme ne trouve pas de résultat.<br><b>Solution:</b>Reporte ce problème en cliquant sur <b>Reporter un problème</b> en dessous de l'image.</li></ul>",
        "en": "Our algorithm can't compute a position or computes an impossible position if:<ul><li><b>The anchor points are incorrect:</b><br><b>Solution:</b> Check your anchor points again. Delete the wrongs ones. Add more anchors.</li><li><b>The 3D landscape view and the photo's view are too different:</b>Our algorithm takes as starting point the 3D landscape virtual camera. If the 3D landscape is too far from the real location, the algorithm fails.<br><b>Solution:</b> Move the 3D landscape to better match the photo viewpoint.</li><li><b>The view point is impossible:</b>If the photo was cropped or 'photoshop-ed', the geometry of the photo does'nt match the regular geometry of a photo and our alorithm fails.<br><b>Solution:</b> There is no solution and few photos which have this problem.Report it with a click on <b>Report a problem</b> on the bottom of the picture.</li></ul>",
        "de": "Unser Algorithmus kann keine Position berechnen oder berechnet eine unmögliche Position wenn:<ul><li><b>Die Punktepaare falsch sind:</b><br><b>Lösung:</b> Überprüfen Sie die Punktepaare und löschen Sie falsche Punktepaare. Finden Sie zusätzliche Punktepaare.</li><li><b>Die 3D-Landschaft und die Bildansicht sind zu verschieden:</b>Unser Algorithmus nimmt den Standpunkt der virtuellen Kamera als Ausgangspunkt. Wenn die 3D-Landschaft zu weit von der tatsächlichen Position entfernt ist, ist das Resultat der Berechnungen falsch.<br><b>Lösung:</b> Bewegen Sie die 3D-Landschaft, um der Ansicht im Bild besser zu entsprechen.</li><li><b>Der Ansichtspunkt ist unmöglich:</b>Wenn das Bild eine Fotomontage ist, stimmt die Geometrie des Bildes nicht mehr mit der normalen Fotogeometrie überein und unser Algorithmus gibt ein falsches Resultat.<br><b>Lösung:</b> Für diese Bilder gibt es leider keine Lösung. Klicken Sie auf <b>Ein Problem melden</b> unten am Bild</li></ul>",
        "it": "Il nostro algoritmo non può calcolare una posizione o calcolare una posizione impossibile se:<ul><li><b>I punti sono sbagliati:</b><br><b>Soluzione:</b> Controlla di nuovo i tuoi punti. cancella i punti sbagliati. Aggiungi altri punti.</li><li><b>Il paesaggio 3D e l'immagine sono troppo lontani e differenti:</b>Il nostro algoritmo prende come punto di partenza il paesaggio 3D. Se é troppo lontano dalla vista dell'immagine, l'algoritmo non può essere applicato.<br><b>Soluzione:</b> Muovi il paesaggio 3D cosi che corrisponda al meglio all'immagine.</li><li><b>La vista é impossibile:</b>Se l'immagine é stata tagliata o dipende d'un fotomontaggio, la sua geometria non corrisponde a quella di un'immaigne normale, allora l'algoritmo non a risultato.<br><b>Soluzione:</b> Riporta questo problema selezionando<b>Riporta un problema</b> in basso dell'immagine.</li></ul>"
      }
    ,
    "prob3_title":
      {
        "fr": "+ Je ne peux pas valider la position d'une image.",
        "en": "+ I cant validate the georeferencing of a image.",
        "de": "+ Ich kann die Georeferenzierung eines Bildes nicht bestätigen.",
        "it": "+ Non posso validare la posizione di un'immagine."
      }
    ,
    "prob3_text":
      {
        "fr": "La position de l'image ne peut pas être validée si:<ul><li><b>Tu n'as pas fourni assez de points (6 minimum)</b><br><b>Solution:</b> Clique sur plus de points.</li><li><b>Les points sont imprécis.</b><br>Les points imprécis sont marqués en rouge. La position du point rouge est calculée par l'algorithme, si il est trop loin du points cliqué dans l'image, c'est qu'il est vraisemblablement faux ou imprécis.<br><b>Solution:</b>Supprime ou corrige le point imprécis.</li></ul>",
        "en": "The image's location can't be validated if:<ul><li><b>You provide less than six points.</b><br><b>Solution:</b> Provide more points.</li><li><b>The points are inaccurate.</b><br>Inaccurate points are marked with a red dot. The red dot is computed by the algorithm, if it is far from the clicked location, this point is likely incorrect.<br><b>Solution:</b> Delete or correct the inaccurate point.</li></ul>",
        "de": "Die Bildposition kann nicht bestätigt werden, wenn:<ul><li><b>Sie weniger als sechs Punkte angegeben haben</b><br><b>Lösung:</b> Mehr Punktepaare finden.</li><li><b>Die Punktepaare stimmen nicht.</b><br>Ungenaue Punkte werden mit einem roten Punkt markiert. Der rote Punkt wird mit dem Algorithmus berechnet. Wenn der Punkt zu weit von dem angeklickten Bildpunkt entfernt ist, ist der Punkt wahrscheinlich nicht korrekt. <br><b>Lösung:</b> Den ungenauen Punkt korrigieren oder löschen.</li></ul>",
        "it": "La posizione dell'immagine non può essere validata se:<ul><li><b>Non hai fornito abbastanza punti (minimo 6).</b><br><b>Soluzione:</b> Seleziona piu punti.</li><li><b>I punti sono imprecisi.</b><br>I punti imprecisi sono segnati in rosso. La posizione del punto rosso é calcolata dall'algoritmo, se é troppo lontana dal punto selezionato nell'immagine, probabilmente é sbagliata o imprecisa.<br><b>Soluzione:</b> Cancella o correggi il punto impreciso.</li></ul>"
      }
    ,
    "prob4_title":
      {
        "fr": "+ Je ne peux pas calculer la position d'une vue aérienne verticale.",
        "en": "+ I cant compute the location of a top-down aerial photo.",
        "de": "+ Ich kann die Position eines Luftbildes, das senkrecht von oben aufgenommen wurde, nicht berechnen.",
        "it": "+ Non posso calcolare la posizione di una vista aerea verticale."
      }
    ,
    "prob4_text":
      {
        "fr": "L'algorithme est optimisé pour des images terrestres et aériennes obliques.<br><b>Solution:</b>Parfois l'algorithme est capable de calculer une solution si le paysage 3D est très similaire à la vue aérienne.",
        "en": "Our algorithm is optimized for terrestrial and aerial <b>oblique</b> images.<br><b>Solution:</b> Sometimes the algorithm succedes if the 3D landscape viewpoint is very similar to the photo viewpoint.",
        "de": "Unser Algorithmus wurde für Bilder, die <b>schräg</b> aufgenommen wurden, optimiert.<br><b>Lösung:</b> Manchmal gelingt es dem Algorithmus eine Position zu berechnen, wenn die 3D-Ansicht sehr ähnlich ist, wie die Bildansicht.",
        "it": "L'algoritmo si presta al meglio per delle immagini terresti o aeree oblique <b>oblique</b> .<br><b>Soluzione:</b> A volte l'algoritmo calcola una soluzione se il paesaggio 3D é molto simile alla vista aerea."
      }
    ,
    "error2_title":
      {
        "fr": "Les points sont mal disitribués",
        "en": "+ The anchor points are badly distributed.",
        "de": "+ Die Punktepaare sind schlecht verteilt.",
        "it": "+ I punti sono mal distribuiti ."
      }
    ,
    "error2_text":
      {
        "fr": "Si tous les points sont groupés dans une petite partie de l'image, l'alignement à l'extérieur de ces points est mauvais.<br><b>Solution:</b> Dans la manière du possible, il faut distribuer les points dans toute l'image.",
        "en": "If all the anchor points are groupped in a small area of the photo, their alignment outside from the anchor points is poor.<br><b>Solution:</b> If possible scatter the points in the entire photo.",
        "de": "Wenn alle Punktepaare nahe beieinander liegen, sind die Positionen vom Ausgangspunkt aus gesehen schlecht.<br><b>Lösung:</b> Wenn möglich die Punktepaare über das ganze Bild verteilen.",
        "it": "Se i punti sono tutti molto vicini nell'immagine, allora l'allineamento a l'esterno di questi punti non corrisponde.<br><b>Soluzione:</b> Se possibile, biosgna distribuire i punti su tutta l'immagine."
      }
    ,
    "error3_title":
      {
        "fr": "+ La position calculée est cachée derrière du relief.",
        "en": "+ The computed location is hidden behind the relief.",
        "de": "+ Die berechnete Position ist hinter der Landschaft versteckt.",
        "it": "+ La posizione calcolata é nascosta dietro il rilievo."
      }
    ,
    "error3_text":
      {
        "fr": "En général la précision de la position calculée est de 20 à 50m. Dans le cas d'images terrestres, la position vraie peut être au sommet d'une colline et la position calculée derrière la colline. <br><b>Solution:</b> En tirant deux points de l'images sur les côtés. L'algorithme va alors pousser en avant la position calculée.",
        "en": "Usually the computed location accuracy is around 20 to 50m. For terrestrial images, the real position can be on a hill top and the computed position on the hill slope: the computed location is hidden behind the relief.<br><b>Solution:</b>You have to pull slightly two front points on the side. The algorithm will push the computed position forward.",
        "de": "Die berechnete Position hat üblicherweise eine Genauigkeit zwischen 20 und 50 m. Bei Bildern, die vom Boden aus aufgenommen wurden kann es passieren, dass die tatsächliche Position auf einer Bergspitze ist und die berechnete Position gerade vor der Bergspitze ist. Daher ist die berechnete Position hinter der Landschaft versteckt.<br><b>Lösung:</b>Sie können zwei Bildpunkte, die im Vordergrund sind ein bisschen zur Seite schieben. Der Algorithmus wird eine neue Position berechnen, die sich etwas weiter nach vorne befindet.",
        "it": "Normalmente, la precisione della posizione varia tra i 20 e 50 m. Nel caso delle immagini terrestri, la vera posizione può essere una cima di una collina e la posizione calcolata risulta quella dietro la collina.<br><b>Soluzione:</b>Bisogna trascinare due punti dell'immagine sui lati, allora l'algoritmo sposta la posizione calcolata."
      }
    ,
    "error4_title":
      {
        "fr": "+ Un ou plusieurs point sont imprécis.",
        "en": "+ One or many correspondences are inaccurate.",
        "de": "+ Ein oder mehrere Punktepaare sind ungenau.",
        "it": "+ Uno o più punti sono imprecisi."
      }
    ,
    "error4_text":
      {
        "fr": "D'une fois que la position est calculée des cercles apparaissent dans les cibles. Les cercles indiquent la position des points calculé par l'algorithme. Si la cible est loin du cercle (orange ou rouge), cela indique une probable erreur. <b>Solution:</b> Bouge ou supprime les points imprécis.",
        "en": "Once that the photo position is computed, circles appears within the targets. The target is the clicked anchor location, the circle is the computed anchor location. If they are far away, it is suggested that a clicked location is wrong or inaccurate. <b>Solution:</b> Move or delete inaccurate anchor points.",
        "de": "Sobald die Position des Bildes berechnet wurde, erscheinen Zielringe. Das Ziel ist die angeklickte Position, der Ring um das Ziel ist die berechnete Position. Wenn die Übereinstimmung schlecht ist, teilt das System mit, dass eine angeklickte Position ungenau oder falsch ist. <b>Lösung:</b>Die Position verbessern oder ungenaue Punktepaare löschen.",
        "it": "Una volta che la posizione é stata calcolata, dei cerchi gialli appaiono nei bersagli. I cerchi gialli indicano la posizione dei punti calcolati dall'algoritmo. Se il bersaglio é lontano dal cerchio(arancione o rosso), questo indica un probabile errore. <b>Soluzione:</b> Muovi o cancella i punti imprecisi."
      }
    ,
    "error5_title":
      {
        "fr": "+ La position est incorrecte",
        "en": "+ The location is incorrect",
        "de": "+ Die Position ist nicht korrekt",
        "it": "+ La posizione é sbagliata"
      }
    ,
    "error5_text":
      {
        "fr": "La position fournie ne correspond pas à l'image. Parfois le lieu peut ressembler à l'image.<br><b>Solution:</b> Recommence ou passe à une autre image.",
        "en": "The image position provided isn't at the right place. Sometimes a location looks like the image but isn't the right location.<br><b>Solution:</b> Restart the geolocalisation or give up.",
        "de": "Die angegebene Position ist nicht korrekt. Manchmal sieht eine berechnete Position wie die richtige Position aus, aber ist doch nicht korrekt.<br><b>Lösung:</b> Neu starten oder ein anderes Bild georeferenzieren.",
        "it": "La posizione data non corrisponde all'immagine. A volte il luogo può assomigliare all'immagine.<br><b>Soluzione:</b> Ricomincia o passa a un'altra immagine."
      }
    ,
    "error6_title":
      {
        "fr": "+ Un toit est utilisé comme point",
        "en": "+ A roof is used as point",
        "de": "+ Ein Dach wurde angeklickt",
        "it": "+ Un tetto é utilizzato come punto"
      }
    ,
    "error6_text":
      {
        "fr": "Le globe virtuel ne connait pas l'altitude des bâtiments, il ne faut donc cliquer que sur des points au niveau du sol dans l'image et dans le globe virtuel.",
        "en": "The virtual globe doesn't contain the height of the buildings. You have to click at the ground level both in the image and in the virtual globe.",
        "de": "Im virtuellen Globus werden Gebäudehöhen nicht in Betracht gezogen. Daher muss man auf Punkte auf dem Boden klicken - sowohl im Bild, als auch im virtuellen Globus.",
        "it": "Il globo virtuale non dispone dell'altezza degli edifici, dunque bisogna selezionare solo dei punti sul suolo nell'immagine e nel globo virtuale."
      }
    ,
    "no_answer":
      {
        "fr": "Tu n'as pas trouvé la réponse à ton problème?",
        "en": "Didn't find an answer to your problem?",
        "de": "Du hast die Antwort nicht gefunden?",
        "it": "Non hai trovato la risposta al problema?"
      }
    ,
    "contact":
      {
        "fr": "Contacte nous",
        "en": "Contact us:",
        "de": "Schreib uns:",
        "it": "Contattaci:"
      }
  }
}
