{"texts":
  {
    "visit":
    {
      "fr": "Visiter",
      "en": "Visit",
      "de": "Entdecken",
      "it": "Visitare"
    }
    ,
    "contribute":
    {
      "fr": "Participer",
      "en": "Contribute",
      "de": "Teilnehmen",
      "it": "Partecipare"
    }
    ,
    "login":
    {
      "fr": "Login",
      "en": "Login",
      "de": "Login",
      "it": "Login"
    }
    ,
    "slogan":
    {
      "fr": "La machine à remonter le temps participative",
      "en": "The participative time machine",
      "de": "Die partizipative Zeitmaschine",
      "it": "La macchina del tempo partecipativa"
    }
    ,
    "slogan_exp":
    {
      "fr": "Dans le temps, il n'y avait pas de GPS, aide-nous à géolocaliser des photos historique de Suisse.",
      "en": "In the past there was no GPS. Help us to georeference historical images of Switzerland.",
      "de": "Früher gab es kein GPS. Daher brauchen wir Sie, um die genaue geografische Position von historischen Bilder wiederzufinden.",
      "it": "Nel passato, non esisteva alcun sistema di posizionamento globale (GPS) : aiutaci a geolocalizzare le fotografie storiche della Svizzera."
    }
    ,
    "computer_only":
    {
      "fr": "Seulement avec un ordinateur.",
      "en": "Only with a computer",
      "de": "Nur mit einem Computer",
      "it": "Solo con un computer"
    }
    ,
    "cur_challenge":
    {
      "fr": "Challenge actuel",
      "en": "Current challenge",
      "de": "Aktuelle Kampagne",
      "it": "Sfida attuale"
    }
    ,
    "know_more":
    {
      "fr": "En savoir plus",
      "en": "Know more",
      "de": "Mehr herausfinden",
      "it": "Saperne di più"
    }
    ,
    "presentation_title":
    {
      "fr": "Présentation",
      "en": "Presentation",
      "de": "Präsentation",
      "it": "Presentazione"
    }
    ,
    "presentation_text":
    {
      "fr": "Le but de smapshot est d’utiliser des images d’archives pour recréer un globe virtuel du temps passé. Les photographies permettent de remonter le temps jusqu’à la fin du 19ème siècle avec une très haute résolution. Un outil permet à des volontaires d'aligner les images avec le globe virtuel et ainsi de les géolocaliser. smapshot est un projet de la HEIG-VD. Il est soutenu financièrement par la fondation Hasler et le pour-cent culturel Migros. Après un premier test avec le fond Perrochet des Archives de la Construction Moderne de l'EPFL, il s'ouvre maintenant à d'autres collections.",
      "en": "smapshot uses archive images to build a virtual globe of the past. Images go back to the end of the 19th century with a very high resolution. A tool was developped to allows volunteers to align the images with the virtual globe. smapshot is a project of the HEIG-VD. It is supported by the Hasler fundation and the Migros cultural per-cent. It was tested with the Perrochet collection from the Archives de la Construction Moderne de l'EPFL, it is yet open to other collections.",
      "de": "Das Ziel von smapshot ist es, mit der Hilfe von historischen Bildern einen virtuellen Globus der Vergangenheit zu rekonstruieren. smapshot ist ein Werkzeug das ortskundigen Teilnehmer/innen erlaubt, die Bilder im virtuellen Globus zu positionieren und damit zu georeferenzieren. smapshot ist ein Projekt der HEIG-VD. Es wird von der Hasler Stiftung und dem Migros Kulturprozent unterstützt.",
      "it": "L’obiettivo di «smapshot» è quello d’utilizzare delle immagini d’archivio per arricchire la rappresentazione numerica «Globo virtuale» del passato. Le fotografie permettono di fare un viaggio nel tempo ad alta definizione, dal XIX secolo fino ad oggi. Uno strumento informatico che permette ai volontari d’allineare le immagini d’epoca all’odierno «Globo virtuale» e di geolocalizzare queste immagini. «smapshot» è un progetto della HEIG-VD. È sostenuto finanziariamente dalla fondazione Hasler e dal Percento culturale Migros. Dopo un primo test con il fondo Perrochet degli Archives de la construction Moderne dell’EPFL, si apre oggi ad altre collezioni."
    }
    ,
    "leaderboard":
    {
      "fr": "Classement",
      "en": "Leaderboard",
      "de": "Bestenliste",
      "it": "Classifica"
    }
    ,
    "show_more_v":
    {
      "fr": "Montrer plus de participants",
      "en": "Show more participants",
      "de": "Mehr Teilnehmer/innen zeigen",
      "it": "Mostrare altri partecipanti"
    }
    ,
    "show_less_v":
    {
      "fr": "Montrer moins de participants",
      "en": "Show less participants",
      "de": "Weniger Teilnehmer/inne zeigen",
      "it": "Mostrare meno partecipanti"
    }
    ,
    "show_more_c":
    {
      "fr": "Montrer plus de collections",
      "en": "Show more collections",
      "de": "Mehr Sammlungen zeigen",
      "it": "Mostrare altre collezioni"
    }
    ,
    "show_less_c":
    {
      "fr": "Montrer moins de collections",
      "en": "Show less collections",
      "de": "Weniger Sammlungen zeigen",
      "it": "Mostrare meno collezioni"
    }
    ,
    "stat_title":
    {
      "fr": "Statistique en temps réel",
      "en": "Real time statistics",
      "de": "Statistik in Echtzeit",
      "it": "Statistica in tempo reale"
    }
    ,
    "provide_own":
    {
      "fr": "Tu veux ajouter ta propre collection d'images?",
      "en": "Do you want to add your own image collection?",
      "de": "Wollen Sie Ihre eigene Bildsammlung hinzufügen?",
      "it": "Vuoi aggiungere la tua collezione di immagini?"
    }
    ,
    "contact_us":
    {
      "fr": "Contacte nous",
      "en": "Contact us",
      "de": "Kontaktieren Sie uns",
      "it": "Contattaci"
    }
    ,
    "use_photos":
    {
      "fr": "Tu veux extraire des données des photos?",
      "en": "Would you like to use these images to extract data?",
      "de": "Möchten Sie Daten aus den Fotos extrahieren?",
      "it": "Vuoi estrarre dei dati dalle foto?"
    }
    ,
    "from":
    {
      "fr": "de",
      "en": "from",
      "de": "von den",
      "it": "di"
    }
    ,
    "photos":
    {
      "fr": "photos géolocalisées par",
      "en": "images georeferenced by",
      "de": "Bilder von Teilnehmer/innen georeferenziert:",
      "it": "foto geolocalizzate da"
    }
    ,
    "vol_geoloc":
    {
      "fr": "volontaires",
      "en": "volunteers",
      "de": "Teilnehmer/innen",
      "it": "volontari"
    }
    ,
    "with":
    {
      "fr": "avec",
      "en": "with",
      "de": "mit",
      "it": "con"
    }
    ,
    "more_smapshot":
    {
      "fr": "Plus d'infos sur le projet smapshot",
      "en": "More information about smapshot",
      "de": "Mehr Informationen über smapshot",
      "it": "Maggiori informazioni sul progetto smapshot"
    }
    ,
    "every_coll":
    {
      "fr": "Toutes les collections",
      "en": "Every collections",
      "de": "Alle Bildersammlungen",
      "it": "Tutte le collezioni"
    }
    ,
    "bests": {
      "fr": "Meilleurs participants",
      "en": "Best volunteers",
      "de": "Beste Teilnehmer/innen",
      "it": "Migliori partecipanti"
    }
    ,
    "images": {
      "fr": "images",
      "en": "images",
      "de": "Fotos",
      "it": "immagini"
    }
    ,
    "all": {
      "fr": "Tous",
      "en": "All",
      "de": "Alle",
      "it": "Tutti"
    }
    ,
    "collections": {
      "fr": "Collections",
      "en": "Collections",
      "de": "Bildersammlungen",
      "it": "Collezioni"
    }
  }
}
