{"texts":
  {
    "noImages":
    {
      "fr": "Tu n'as pas encore géolocalisé d'image.",
      "en": "You didn't georeference any images yet.",
      "de": "Du hast noch kein Foto georeferenziert.",
      "it": "Non hai ancora geolocalizzato delle immagini."
    }
    ,
    "errors":
    {
      "fr": "Mes images",
      "en": "My images",
      "de": "Meine Fotos",
      "it": "Le mie immagini"
    }
    ,
    "listErrors":
    {
      "fr": "Liste des erreurs:",
      "en": "List of errors:",
      "de": "Fehlerliste",
      "it": "Lista degli errori:"
    }
    ,
    "remark":
    {
      "fr": "Remarque",
      "en": "Remark",
      "de": "Bemerkung",
      "it": "Nota"
    }
    ,
    "filters":
    {
      "fr": "Filtres:",
      "en": "Filters: ",
      "de": "Filter: ",
      "it": "Filtri: "
    }
    ,
    "owners":
    {
      "fr": "Propriétaire",
      "en": "Owner",
      "de": "Besitzer",
      "it": "Proprietario"
    }
    ,
    "collections":
    {
      "fr": "Collections",
      "en": "Collections",
      "de": "Sammlungen",
      "it": "Collezione"
    }
    ,
    "status":
    {
      "fr": "Statut",
      "en": "Status",
      "de": "Status",
      "it": "Statuto"
    }
    ,
    "from":
    {
      "fr": "De",
      "en": "From",
      "de": "Von",
      "it": "Dal"
    }
    ,
    "to":
    {
      "fr": "à",
      "en": "To",
      "de": "Bis",
      "it": "al"
    }
    ,
    "mySuggestions":
    {
      "fr": "Mes modifications",
      "en": "My suggestions",
      "de": "Meine Vorschläge",
      "it": "Le mie modifiche"
    }
    ,
    "title":
    {
      "fr": "Titre",
      "en": "Title",
      "de": "Titel",
      "it": "Titolo"
    }
    ,
    "caption":
    {
      "fr": "Description",
      "en": "Caption",
      "de": "Beschreibung",
      "it": "Descrizione"
    }
    ,
    "original":
    {
      "fr": "Original",
      "en": "Original",
      "de": "Original",
      "it": "Originale"
    }
    ,
    "yourSugg":
    {
      "fr": "Ta suggestion",
      "en": "Your suggestion",
      "de": "Dein Vorschlag",
      "it": "Il tuo suggerimento"
    }
    ,
    "updateVal":
    {
      "fr": "Mise à jour par l'administrateur",
      "en": "Update by validator",
      "de": "Update der Administrator/innen",
      "it": "Aggiornato dall'amministratore"
    }
    ,
    "remVal":
    {
      "fr": "Remarque de l'administrateur",
      "en": "Remark by validator",
      "de": "Bemerkung der Administrator/innen",
      "it": "Nota dell'amministratore"
    }
    ,
    "myObs":
    {
      "fr": "Mes notes",
      "en": "My notes",
      "de": "Meine Notizen",
      "it": "Le mie note"
    }
    ,
    "yourObs":
    {
      "fr": "Tes notes",
      "en": "Your notes",
      "de": "Ihre Notizen",
      "it": "Le tue note"
    }
    ,
    "logout":
    {
      "fr": "Se déconnecter",
      "en": "Log out",
      "de": "Ausloggen",
      "it": "Disconnettersi"
    }
    ,
    "myParams":
    {
      "fr": "Mes paramètres",
      "en": "My parameters",
      "de": "Meine Einstellungen",
      "it": "Le mie configurazioni"
    }
    ,
    "newsletter":
    {
      "fr": "Newsletter",
      "en": "Newsletter",
      "de": "Newsletter",
      "it": "Newsletter"
    }
    ,
    "wantNewsletter":
    {
      "fr": "Je veux recevoir les newsletters",
      "en": "I want the newsletters",
      "de": "Ich möchte gerne den Newsletter erhalten",
      "it": "Voglio ricevere le newsletter"
    }
    ,
    "notifications":
    {
      "fr": "Notifications",
      "en": "Notifications",
      "de": "Benachrichtigungen",
      "it": "Notifiche"
    }
    ,
    "wantNotifications":
    {
      "fr": "Je veux recevoir un email quand mes contributions sont modifiées.",
      "en": "I want to receive an email when my contributions are modified.",
      "de": "Ich möchte eine Email erhalten wenn meine Beiträge verändert werden.",
      "it": "Voglio ricevere delle notifiche quando i miei contributi sono modificati."
    }
    ,
    "username":
    {
      "fr": "Nom d'utilisateur",
      "en": "Username",
      "de": "Benutzername",
      "it": "Nome utente"
    }
    ,
    "changeUsername":
    {
      "fr": "Changer mon nom d'utilisateur",
      "en": "Change my user name",
      "de": "Benutzername ändern",
      "it": "Cambiare il mio nome utente"
    }
    ,
    "language":
    {
      "fr": "Langue",
      "en": "Language",
      "de": "Sprache",
      "it": "Lingua"
    }
    ,
    "changeLanguage":
    {
      "fr": "Changer ma langue:",
      "en": "Change my language:",
      "de": "Meine Sprache ändern:",
      "it": "Cambiare la mia lingua:"
    }
    ,
    "myRanking":
    {
      "fr": "Mon classement",
      "en": "My ranking",
      "de": "Mein Ranking",
      "it": "La mia classifica"
    }
    ,
    "validated":
    {
      "fr": "Validé",
      "en": "Validated",
      "de": "Bestätigt,",
      "it": "Validato"
    }
    ,
    "improved":
    {
      "fr": "Corrigé",
      "en": "Improved",
      "de": "Verbessert,",
      "it": "Correto"
    }
    ,
    "rejected":
    {
      "fr": "Rejeté",
      "en": "Rejected",
      "de": "Abgelehnt,",
      "it": "Respinto"
    }
    ,
    "waiting":
    {
      "fr": "En attente",
      "en": "Waiting",
      "de": "In der Warteliste,",
      "it": "In attesa"
    }
    ,
    "myImages":
    {
      "fr": "Mes géolocalisations",
      "en": "My georeferencings",
      "de": "Meine Georeferenzierungen",
      "it": "Le mie geolocalizzazioni"
    }
    ,
    "download":
    {
      "fr": "Télécharger",
      "en": "Download",
      "de": "Herunterladen",
      "it": "Scaricare"
    }
    ,
    "see3D":
    {
      "fr": "Voir dans le globe",
      "en": "Show in the globe",
      "de": "Im Globus anzeigen",
      "it": "Vedere nel globo"
    }
    ,
    "seeErrors":
    {
      "fr": "Voir les erreurs",
      "en": "Show the errors",
      "de": "Fehler anzeigen",
      "it": "Vedere gli errori"
    }
    ,
    "restartGeoloc":
    {
      "fr": "Recommencer",
      "en": "Restart",
      "de": "Neustart",
      "it": "Ricominciare"
    }
    ,
    "improveGeoloc":
    {
      "fr": "Continuer",
      "en": "Continue",
      "de": "Fortfahren",
      "it": "Continuare"
    }
    ,
    "noReason":
    {
      "fr": "L'administrateur n'a pas donné de raison pour le rejet ou l'amélioration",
      "en": "The administrator didn't provide the reason of the rejection / improvement",
      "de": "Der Administrator hat keinen Grund der Ablehnung / Verbesserung angegeben",
      "it": "L'amministratore non ha giustificato il rifiuto o il miglioramento"
    }
    ,
    "all": {
      "fr": "Tous",
      "en": "All",
      "de": "Alle",
      "it": "Tutti"
    }
    ,
    "updatePwd": {
      "fr": "Changer le password",
      "en": "Update the password",
      "de": "Passwort ändern",
      "it": "Cambiare password"
    }
    ,
    "oldPwd": {
      "fr": "Ancien password",
      "en": "Old password",
      "de": "Altes Passwort",
      "it": "Password precedente"
    }
    ,
    "newPwd": {
      "fr": "Nouveau password",
      "en": "New password",
      "de": "Neues Passwort",
      "it": "Nuova password"
    }
    ,
    "newPwdNoMatch": {
      "fr": "Le nouveau password ne correspond pas.",
      "en": "The new password doesn't match.",
      "de": "Das neue Passwort stimmt nicht.",
      "it": "La nuova password non corrisponde."
    }
    ,
    "pwdUpdated": {
      "fr": "Le password a été mis à jour.",
      "en": "The password is updated.",
      "de": "Das Passwort wurde aktualisiert.",
      "it": "La password è stata aggiornata."
    }
  }
}
