{
"type": "FeatureCollection",
"crs": { "type": "name", "properties": { "name": "urn:ogc:def:crs:OGC:1.3:CRS84" } },
                                                                                
"features": [
{ "type": "Feature", "properties": { "ID": 228, "X_MIN": 665424.768750, "X_MAX": 675424.768750, "Y_MIN": 225937.548750, "Y_MAX": 235937.548750, "longitude": 8.368513, "latitude": 47.225608 }, "geometry": { "type": "Polygon", "coordinates": [ [ [ 8.434517676293439, 47.224584548866076 ], [ 8.433688839791884, 47.180092662888086 ], [ 8.403328613821987, 47.180337718021917 ], [ 8.405578044684328, 47.194613075460346 ], [ 8.394969851565069, 47.226482138046599 ], [ 8.410705781660813, 47.248038196811976 ], [ 8.422114571894141, 47.223366218951973 ], [ 8.434517676293439, 47.224584548866076 ] ] ] } },
{ "type": "Feature", "properties": { "ID": 229, "X_MIN": 675424.768750, "X_MAX": 685424.768750, "Y_MIN": 225937.548750, "Y_MAX": 235937.548750, "longitude": 8.500538, "latitude": 47.224466 }, "geometry": { "type": "Polygon", "coordinates": [ [ [ 8.566468490355618, 47.220072890460976 ], [ 8.565599225057975, 47.178876576016954 ], [ 8.433688839791884, 47.180092662888086 ], [ 8.434517676293439, 47.224584548866076 ], [ 8.441057754112098, 47.225226966456908 ], [ 8.461408885532427, 47.213641955724476 ], [ 8.47991205497012, 47.208600651144728 ], [ 8.501878441093105, 47.211953088308078 ], [ 8.512549782803683, 47.219410219110273 ], [ 8.539189666085559, 47.223035788483422 ], [ 8.566468490355618, 47.220072890460976 ] ] ] } },
{ "type": "Feature", "properties": { "ID": 230, "X_MIN": 685424.768750, "X_MAX": 695424.768750, "Y_MIN": 225937.548750, "Y_MAX": 235937.548750, "longitude": 8.632556, "latitude": 47.223173 }, "geometry": { "type": "Polygon", "coordinates": [ [ [ 8.629417523750281, 47.178215000560584 ], [ 8.565599225057975, 47.178876576016954 ], [ 8.566468490355618, 47.220072890460976 ], [ 8.578302424812103, 47.218787543972006 ], [ 8.608292090878235, 47.205128266834429 ], [ 8.628136052333653, 47.179215178856445 ], [ 8.629417523750281, 47.178215000560584 ] ] ] } },
{ "type": "Feature", "properties": { "ID": 263, "X_MIN": 665424.768750, "X_MAX": 675424.768750, "Y_MIN": 215937.548750, "Y_MAX": 225937.548750, "longitude": 8.366952, "latitude": 47.135667 }, "geometry": { "type": "Polygon", "coordinates": [ [ [ 8.403328613821987, 47.180337718021917 ], [ 8.433688839791884, 47.180092662888086 ], [ 8.432688113923859, 47.126191247176195 ], [ 8.417639576887263, 47.122457729079983 ], [ 8.412120196760045, 47.140738631316793 ], [ 8.415071838166739, 47.158011734037359 ], [ 8.411657608908209, 47.173332785900662 ], [ 8.402746909155393, 47.176646098875828 ], [ 8.403328613821987, 47.180337718021917 ] ] ] } },
{ "type": "Feature", "properties": { "ID": 264, "X_MIN": 675424.768750, "X_MAX": 685424.768750, "Y_MIN": 215937.548750, "Y_MAX": 225937.548750, "longitude": 8.498754, "latitude": 47.134527 }, "geometry": { "type": "Polygon", "coordinates": [ [ [ 8.433688839791884, 47.180092662888086 ], [ 8.565599225057975, 47.178876576016954 ], [ 8.56374760548651, 47.090826265308074 ], [ 8.56274525196852, 47.093585271611332 ], [ 8.520758776461671, 47.090048719211396 ], [ 8.492969235090651, 47.100202223953417 ], [ 8.493683539388416, 47.113734069595594 ], [ 8.480378731313801, 47.126290858559564 ], [ 8.451750755561408, 47.114264007997178 ], [ 8.448226681332885, 47.130046341028155 ], [ 8.432688113923859, 47.126191247176195 ], [ 8.433688839791884, 47.180092662888086 ] ] ] } },
{ "type": "Feature", "properties": { "ID": 265, "X_MIN": 685424.768750, "X_MAX": 695424.768750, "Y_MIN": 215937.548750, "Y_MAX": 225937.548750, "longitude": 8.630550, "latitude": 47.133236 }, "geometry": { "type": "Polygon", "coordinates": [ [ [ 8.565599225057975, 47.178876576016954 ], [ 8.629417523750281, 47.178215000560584 ], [ 8.641102336213715, 47.169095096936154 ], [ 8.660829266544516, 47.170506583878854 ], [ 8.661616950287627, 47.160530765453281 ], [ 8.692473450959174, 47.163626105787806 ], [ 8.696944507824584, 47.153725948782345 ], [ 8.696837102735808, 47.149153988386232 ], [ 8.688314151535261, 47.145922254037096 ], [ 8.681768317572429, 47.125212450089315 ], [ 8.659819845523574, 47.114661658011364 ], [ 8.63737417041393, 47.093289676100241 ], [ 8.611594277329885, 47.09504887491557 ], [ 8.591201213163837, 47.08865246212207 ], [ 8.564436550797717, 47.08892992392542 ], [ 8.56374760548651, 47.090826265308074 ], [ 8.565599225057975, 47.178876576016954 ] ] ] } },
{ "type": "Feature", "properties": { "ID": 266, "X_MIN": 695424.768750, "X_MAX": 705424.768750, "Y_MIN": 215937.548750, "Y_MAX": 225937.548750, "longitude": 8.762340, "latitude": 47.131795 }, "geometry": { "type": "Polygon", "coordinates": [ [ [ 8.696837102735808, 47.149153988386232 ], [ 8.696944507824584, 47.153725948782345 ], [ 8.69869168724574, 47.149857210113431 ], [ 8.696837102735808, 47.149153988386232 ] ] ] } },
{ "type": "Feature", "properties": { "ID": 300, "X_MIN": 685424.768750, "X_MAX": 695424.768750, "Y_MIN": 205937.548750, "Y_MAX": 215937.548750, "longitude": 8.628552, "latitude": 47.043298 }, "geometry": { "type": "Polygon", "coordinates": [ [ [ 8.564436550797717, 47.08892992392542 ], [ 8.591201213163837, 47.08865246212207 ], [ 8.567264941107823, 47.081144699896583 ], [ 8.564436550797717, 47.08892992392542 ] ] ] } }
]
}
