{
"type": "FeatureCollection",
"crs": { "type": "name", "properties": { "name": "urn:ogc:def:crs:OGC:1.3:CRS84" } },
                                                                                
"features": [
{ "type": "Feature", "properties": { "ID": 131, "X_MIN": 745424.768750, "X_MAX": 755424.768750, "Y_MIN": 255937.548750, "Y_MAX": 265937.548750, "longitude": 9.434572, "latitude": 47.481980 }, "geometry": { "type": "MultiPolygon", "coordinates": [ [ [ [ 9.499501251586745, 47.445102471250188 ], [ 9.49914308594515, 47.435868748990522 ], [ 9.466548563735815, 47.4364310820052 ], [ 9.499501251586745, 47.445102471250188 ] ] ] ] } },
{ "type": "Feature", "properties": { "ID": 132, "X_MIN": 755424.768750, "X_MAX": 765424.768750, "Y_MIN": 255937.548750, "Y_MAX": 265937.548750, "longitude": 9.567196, "latitude": 47.479615 }, "geometry": { "type": "MultiPolygon", "coordinates": [ [ [ [ 9.570192150033217, 47.434561415266501 ], [ 9.49914308594515, 47.435868748990522 ], [ 9.499501251586745, 47.445102471250188 ], [ 9.523743297641241, 47.451481684332421 ], [ 9.532514470417397, 47.467846842996337 ], [ 9.576635863512072, 47.462972737484421 ], [ 9.629746923339352, 47.444271427136236 ], [ 9.61790419611515, 47.437171160635195 ], [ 9.570192150033217, 47.434561415266501 ] ] ] ] } },
{ "type": "Feature", "properties": { "ID": 164, "X_MIN": 725424.768750, "X_MAX": 735424.768750, "Y_MIN": 245937.548750, "Y_MAX": 255937.548750, "longitude": 9.166368, "latitude": 47.396333 }, "geometry": { "type": "MultiPolygon", "coordinates": [ [ [ [ 9.232601818146211, 47.395927455964788 ], [ 9.231067321270865, 47.350370947378948 ], [ 9.201767481708035, 47.350809179639491 ], [ 9.194506309871283, 47.358659007126569 ], [ 9.208107874864423, 47.361977851589664 ], [ 9.229778926144867, 47.38707690933375 ], [ 9.232601818146211, 47.395927455964788 ] ] ] ] } },
{ "type": "Feature", "properties": { "ID": 165, "X_MIN": 735424.768750, "X_MAX": 745424.768750, "Y_MIN": 245937.548750, "Y_MAX": 255937.548750, "longitude": 9.298791, "latitude": 47.394277 }, "geometry": { "type": "MultiPolygon", "coordinates": [ [ [ [ 9.365399773091124, 47.40427798466694 ], [ 9.364681222738128, 47.384412092655786 ], [ 9.352663835889853, 47.38195770747253 ], [ 9.36382673314127, 47.3607878636994 ], [ 9.363728034859466, 47.358059134390722 ], [ 9.343610695769435, 47.352165230460059 ], [ 9.341151440361982, 47.348598077800226 ], [ 9.231067321270865, 47.350370947378948 ], [ 9.232601818146211, 47.395927455964788 ], [ 9.232741307562524, 47.396364793837797 ], [ 9.271830005589075, 47.401054652669153 ], [ 9.30357168192193, 47.395157790524188 ], [ 9.357635931459241, 47.402297984794288 ], [ 9.365399773091124, 47.40427798466694 ] ] ] ] } },
{ "type": "Feature", "properties": { "ID": 166, "X_MIN": 745424.768750, "X_MAX": 755424.768750, "Y_MIN": 245937.548750, "Y_MAX": 255937.548750, "longitude": 9.431203, "latitude": 47.392068 }, "geometry": { "type": "MultiPolygon", "coordinates": [ [ [ [ 9.466548563735815, 47.4364310820052 ], [ 9.49914308594515, 47.435868748990522 ], [ 9.495772800121605, 47.34868286821888 ], [ 9.487289501365337, 47.350225937528869 ], [ 9.465754177900248, 47.346881456221141 ], [ 9.42978438536263, 47.366679831325527 ], [ 9.411917934542092, 47.36878701691046 ], [ 9.376285646658788, 47.386782135868238 ], [ 9.364681222738128, 47.384412092655786 ], [ 9.365399773091124, 47.40427798466694 ], [ 9.377833447117007, 47.407448924281006 ], [ 9.401934486028098, 47.400824785679696 ], [ 9.425798085184285, 47.407155551154702 ], [ 9.43295863207552, 47.413977950863668 ], [ 9.434881419558193, 47.434502912753217 ], [ 9.452744290993463, 47.432798533949203 ], [ 9.466548563735815, 47.4364310820052 ] ] ], [ [ [ 9.363728034859466, 47.358059134390722 ], [ 9.36382673314127, 47.3607878636994 ], [ 9.365059849159792, 47.358449324440436 ], [ 9.363728034859466, 47.358059134390722 ] ] ] ] } },
{ "type": "Feature", "properties": { "ID": 167, "X_MIN": 755424.768750, "X_MAX": 765424.768750, "Y_MIN": 245937.548750, "Y_MAX": 255937.548750, "longitude": 9.563603, "latitude": 47.389708 }, "geometry": { "type": "MultiPolygon", "coordinates": [ [ [ [ 9.49914308594515, 47.435868748990522 ], [ 9.570192150033217, 47.434561415266501 ], [ 9.558749149360921, 47.433935507965082 ], [ 9.583080755159074, 47.420403273091409 ], [ 9.582877835368388, 47.409771470850927 ], [ 9.555316471902181, 47.396630512739073 ], [ 9.551245238156982, 47.409922770573438 ], [ 9.573634072236247, 47.40732442691521 ], [ 9.576899237176637, 47.415362126221943 ], [ 9.556302350109451, 47.419656349553648 ], [ 9.554735385684536, 47.426702930401291 ], [ 9.523437088872276, 47.421423409924536 ], [ 9.527653332460828, 47.411629785545848 ], [ 9.510752050676604, 47.402378973026757 ], [ 9.509003459529731, 47.394555508574392 ], [ 9.498931839100955, 47.363694469244052 ], [ 9.502973302822971, 47.347373133049324 ], [ 9.495772800121605, 47.34868286821888 ], [ 9.49914308594515, 47.435868748990522 ] ] ] ] } },
{ "type": "Feature", "properties": { "ID": 199, "X_MIN": 725424.768750, "X_MAX": 735424.768750, "Y_MIN": 235937.548750, "Y_MAX": 245937.548750, "longitude": 9.163456, "latitude": 47.306412 }, "geometry": { "type": "MultiPolygon", "coordinates": [ [ [ [ 9.201767481708035, 47.350809179639491 ], [ 9.231067321270865, 47.350370947378948 ], [ 9.230567583491935, 47.335483895394283 ], [ 9.224838167181355, 47.342440436946461 ], [ 9.210890826639702, 47.34094621462107 ], [ 9.201767481708035, 47.350809179639491 ] ] ], [ [ [ 9.230406265634873, 47.330678280479013 ], [ 9.228288967844312, 47.267604557410579 ], [ 9.206238899030215, 47.276510499992106 ], [ 9.22454288762567, 47.292935753375936 ], [ 9.217189618866264, 47.299644103000347 ], [ 9.211603874268288, 47.322581939780235 ], [ 9.230406265634873, 47.330678280479013 ] ] ] ] } },
{ "type": "Feature", "properties": { "ID": 200, "X_MIN": 735424.768750, "X_MAX": 745424.768750, "Y_MIN": 235937.548750, "Y_MAX": 245937.548750, "longitude": 9.295656, "latitude": 47.304359 }, "geometry": { "type": "MultiPolygon", "coordinates": [ [ [ [ 9.231067321270865, 47.350370947378948 ], [ 9.341151440361982, 47.348598077800226 ], [ 9.328928035292819, 47.330868015370548 ], [ 9.311416571494755, 47.325116538296406 ], [ 9.317093752062982, 47.316117329458613 ], [ 9.313552812009396, 47.290649984360151 ], [ 9.323624374719321, 47.283094572034202 ], [ 9.337583983187871, 47.258686025617067 ], [ 9.29649265622562, 47.259347798739327 ], [ 9.273754568581232, 47.270012228870527 ], [ 9.256223375292047, 47.263317223766272 ], [ 9.233106336243337, 47.265658839838565 ], [ 9.228288967844312, 47.267604557410579 ], [ 9.230406265634873, 47.330678280479013 ], [ 9.233447085316632, 47.33198766244363 ], [ 9.230567583491935, 47.335483895394283 ], [ 9.231067321270865, 47.350370947378948 ] ] ] ] } },
{ "type": "Feature", "properties": { "ID": 235, "X_MIN": 735424.768750, "X_MAX": 745424.768750, "Y_MIN": 225937.548750, "Y_MAX": 235937.548750, "longitude": 9.292531, "latitude": 47.214438 }, "geometry": { "type": "MultiPolygon", "coordinates": [ [ [ [ 9.29649265622562, 47.259347798739327 ], [ 9.337583983187871, 47.258686025617067 ], [ 9.342929613975471, 47.249339124699183 ], [ 9.323322863815761, 47.246764116297527 ], [ 9.29649265622562, 47.259347798739327 ] ] ] ] } }
]
}
