{
"type": "FeatureCollection",
"crs": { "type": "name", "properties": { "name": "urn:ogc:def:crs:OGC:1.3:CRS84" } },
                                                                                
"features": [
{ "type": "Feature", "properties": { "ID": 95, "X_MIN": 735424.768750, "X_MAX": 745424.768750, "Y_MIN": 265937.548750, "Y_MAX": 275937.548750, "longitude": 9.305093, "latitude": 47.574104 }, "geometry": { "type": "MultiPolygon", "coordinates": [ [ [ [ 9.337345764892603, 47.528591119944508 ], [ 9.310796139556226, 47.529018679725247 ], [ 9.319236780279603, 47.531490895483891 ], [ 9.337139850802965, 47.528796687955499 ], [ 9.337345764892603, 47.528591119944508 ] ] ] ] } },
{ "type": "Feature", "properties": { "ID": 96, "X_MIN": 745424.768750, "X_MAX": 755424.768750, "Y_MIN": 265937.548750, "Y_MAX": 275937.548750, "longitude": 9.437953, "latitude": 47.571888 }, "geometry": { "type": "MultiPolygon", "coordinates": [ [ [ [ 9.50348211663059, 47.54765627539728 ], [ 9.50263052398064, 47.525776965965704 ], [ 9.468215347540918, 47.526370700370457 ], [ 9.50348211663059, 47.54765627539728 ] ] ] ] } },
{ "type": "Feature", "properties": { "ID": 97, "X_MIN": 755424.768750, "X_MAX": 765424.768750, "Y_MIN": 265937.548750, "Y_MAX": 275937.548750, "longitude": 9.570802, "latitude": 47.569520 }, "geometry": { "type": "MultiPolygon", "coordinates": [ [ [ [ 9.560142177959289, 47.524718742718036 ], [ 9.50263052398064, 47.525776965965704 ], [ 9.50348211663059, 47.54765627539728 ], [ 9.506940794841684, 47.549743791675525 ], [ 9.55871432186385, 47.541897430749252 ], [ 9.560142177959289, 47.524718742718036 ] ] ] ] } },
{ "type": "Feature", "properties": { "ID": 128, "X_MIN": 715424.768750, "X_MAX": 725424.768750, "Y_MIN": 255937.548750, "Y_MAX": 265937.548750, "longitude": 9.036634, "latitude": 47.488160 }, "geometry": { "type": "MultiPolygon", "coordinates": [ [ [ [ 9.102827031775131, 47.482851464417976 ], [ 9.101556749316579, 47.442271637884105 ], [ 9.056615448482633, 47.442892224114793 ], [ 9.058708564320547, 47.443237494553379 ], [ 9.049045843984459, 47.453016132373513 ], [ 9.027419266312789, 47.457624204518829 ], [ 9.024560332017975, 47.4689532563455 ], [ 9.009299244046648, 47.472858741721325 ], [ 9.006801172142948, 47.482635102622041 ], [ 9.043007984088737, 47.494697088177467 ], [ 9.081938036619016, 47.495122535491056 ], [ 9.090370008480276, 47.482408165056363 ], [ 9.102827031775131, 47.482851464417976 ] ] ] ] } },
{ "type": "Feature", "properties": { "ID": 129, "X_MIN": 725424.768750, "X_MAX": 735424.768750, "Y_MIN": 255937.548750, "Y_MAX": 265937.548750, "longitude": 9.169290, "latitude": 47.486252 }, "geometry": { "type": "MultiPolygon", "coordinates": [ [ [ [ 9.23545631180148, 47.480534335767452 ], [ 9.234096074803656, 47.440289303380681 ], [ 9.101556749316579, 47.442271637884105 ], [ 9.102827031775131, 47.482851464417976 ], [ 9.124008700064655, 47.48360524160924 ], [ 9.156145085330451, 47.487936831012803 ], [ 9.169170702296677, 47.498304243186155 ], [ 9.206495632505231, 47.486629900322114 ], [ 9.23545631180148, 47.480534335767452 ] ] ] ] } },
{ "type": "Feature", "properties": { "ID": 130, "X_MIN": 735424.768750, "X_MAX": 745424.768750, "Y_MIN": 255937.548750, "Y_MAX": 265937.548750, "longitude": 9.301937, "latitude": 47.484192 }, "geometry": { "type": "MultiPolygon", "coordinates": [ [ [ [ 9.310796139556226, 47.529018679725247 ], [ 9.337345764892603, 47.528591119944508 ], [ 9.350515591414524, 47.51544342787588 ], [ 9.341445726821517, 47.503643695404321 ], [ 9.368909791449832, 47.501104247638828 ], [ 9.366625106480338, 47.438154999251019 ], [ 9.234096074803656, 47.440289303380681 ], [ 9.23545631180148, 47.480534335767452 ], [ 9.26339353056942, 47.474654186385045 ], [ 9.278353101107383, 47.479401457276552 ], [ 9.299050271399507, 47.477748146439303 ], [ 9.319278792889895, 47.490646202996253 ], [ 9.311479117973356, 47.510384925588163 ], [ 9.280672111197365, 47.506074807180433 ], [ 9.282345463354167, 47.520685638152237 ], [ 9.310796139556226, 47.529018679725247 ] ] ] ] } },
{ "type": "Feature", "properties": { "ID": 131, "X_MIN": 745424.768750, "X_MAX": 755424.768750, "Y_MIN": 255937.548750, "Y_MAX": 265937.548750, "longitude": 9.434572, "latitude": 47.481980 }, "geometry": { "type": "MultiPolygon", "coordinates": [ [ [ [ 9.468215347540918, 47.526370700370457 ], [ 9.50263052398064, 47.525776965965704 ], [ 9.499501251586745, 47.445102471250188 ], [ 9.466548563735815, 47.4364310820052 ], [ 9.366625106480338, 47.438154999251019 ], [ 9.368909791449832, 47.501104247638828 ], [ 9.373216205626145, 47.500706057712996 ], [ 9.372505806962637, 47.489939886467994 ], [ 9.400678997295175, 47.479677295575371 ], [ 9.406187143848108, 47.493681781035335 ], [ 9.435899263181316, 47.506866037596836 ], [ 9.468215347540918, 47.526370700370457 ] ] ] ] } },
{ "type": "Feature", "properties": { "ID": 132, "X_MIN": 755424.768750, "X_MAX": 765424.768750, "Y_MIN": 255937.548750, "Y_MAX": 265937.548750, "longitude": 9.567196, "latitude": 47.479615 }, "geometry": { "type": "MultiPolygon", "coordinates": [ [ [ [ 9.50263052398064, 47.525776965965704 ], [ 9.560142177959289, 47.524718742718036 ], [ 9.561817613220031, 47.504561403506692 ], [ 9.565796677224004, 47.49237263210172 ], [ 9.583393759744652, 47.48122505054662 ], [ 9.593143944677497, 47.465586940128397 ], [ 9.61159294211631, 47.469447498256734 ], [ 9.620677207546152, 47.458413911023271 ], [ 9.632619889655274, 47.456942172054568 ], [ 9.631649255286305, 47.433430577762742 ], [ 9.609464506395099, 47.433838786804714 ], [ 9.61790419611515, 47.437171160635195 ], [ 9.629746923339352, 47.444271427136236 ], [ 9.576635863512072, 47.462972737484421 ], [ 9.532514470417397, 47.467846842996337 ], [ 9.523743297641241, 47.451481684332421 ], [ 9.499501251586745, 47.445102471250188 ], [ 9.50263052398064, 47.525776965965704 ] ] ] ] } },
{ "type": "Feature", "properties": { "ID": 133, "X_MIN": 765424.768750, "X_MAX": 775424.768750, "Y_MIN": 255937.548750, "Y_MAX": 265937.548750, "longitude": 9.699808, "latitude": 47.477099 }, "geometry": { "type": "MultiPolygon", "coordinates": [ [ [ [ 9.646272890067126, 47.43314470607212 ], [ 9.631649255286305, 47.433430577762742 ], [ 9.632619889655274, 47.456942172054568 ], [ 9.654430757251042, 47.45425434167538 ], [ 9.658001293763753, 47.447792726298466 ], [ 9.646272890067126, 47.43314470607212 ] ] ] ] } },
{ "type": "Feature", "properties": { "ID": 162, "X_MIN": 705424.768750, "X_MAX": 715424.768750, "Y_MIN": 245937.548750, "Y_MAX": 255937.548750, "longitude": 8.901495, "latitude": 47.399991 }, "geometry": { "type": "MultiPolygon", "coordinates": [ [ [ [ 8.96746074789522, 47.390211358676282 ], [ 8.966426248091897, 47.35417725526127 ], [ 8.960551048920214, 47.354251643222895 ], [ 8.943625340935212, 47.375838750318657 ], [ 8.964965207346248, 47.384779597461439 ], [ 8.96746074789522, 47.390211358676282 ] ] ] ] } },
{ "type": "Feature", "properties": { "ID": 163, "X_MIN": 715424.768750, "X_MAX": 725424.768750, "Y_MIN": 245937.548750, "Y_MAX": 255937.548750, "longitude": 9.033936, "latitude": 47.398238 }, "geometry": { "type": "MultiPolygon", "coordinates": [ [ [ [ 9.056615448482633, 47.442892224114793 ], [ 9.101556749316579, 47.442271637884105 ], [ 9.098751524545442, 47.352349970184875 ], [ 8.966426248091897, 47.35417725526127 ], [ 8.96746074789522, 47.390211358676282 ], [ 8.976837452150439, 47.41062057162916 ], [ 8.98883189104213, 47.411117022868048 ], [ 8.994151507016015, 47.429901044127284 ], [ 9.003289631917246, 47.434095850908918 ], [ 9.056615448482633, 47.442892224114793 ] ] ] ] } },
{ "type": "Feature", "properties": { "ID": 164, "X_MIN": 725424.768750, "X_MAX": 735424.768750, "Y_MIN": 245937.548750, "Y_MAX": 255937.548750, "longitude": 9.166368, "latitude": 47.396333 }, "geometry": { "type": "MultiPolygon", "coordinates": [ [ [ [ 9.101556749316579, 47.442271637884105 ], [ 9.234096074803656, 47.440289303380681 ], [ 9.232601818146211, 47.395927455964788 ], [ 9.229778926144867, 47.38707690933375 ], [ 9.208107874864423, 47.361977851589664 ], [ 9.194506309871283, 47.358659007126569 ], [ 9.201767481708035, 47.350809179639491 ], [ 9.098751524545442, 47.352349970184875 ], [ 9.101556749316579, 47.442271637884105 ] ] ] ] } },
{ "type": "Feature", "properties": { "ID": 165, "X_MIN": 735424.768750, "X_MAX": 745424.768750, "Y_MIN": 245937.548750, "Y_MAX": 255937.548750, "longitude": 9.298791, "latitude": 47.394277 }, "geometry": { "type": "MultiPolygon", "coordinates": [ [ [ [ 9.234096074803656, 47.440289303380681 ], [ 9.366625106480338, 47.438154999251019 ], [ 9.365399773091124, 47.40427798466694 ], [ 9.357635931459241, 47.402297984794288 ], [ 9.30357168192193, 47.395157790524188 ], [ 9.271830005589075, 47.401054652669153 ], [ 9.232741307562524, 47.396364793837797 ], [ 9.232601818146211, 47.395927455964788 ], [ 9.234096074803656, 47.440289303380681 ] ] ] ] } },
{ "type": "Feature", "properties": { "ID": 166, "X_MIN": 745424.768750, "X_MAX": 755424.768750, "Y_MIN": 245937.548750, "Y_MAX": 255937.548750, "longitude": 9.431203, "latitude": 47.392068 }, "geometry": { "type": "MultiPolygon", "coordinates": [ [ [ [ 9.366625106480338, 47.438154999251019 ], [ 9.466548563735815, 47.4364310820052 ], [ 9.452744290993463, 47.432798533949203 ], [ 9.434881419558193, 47.434502912753217 ], [ 9.43295863207552, 47.413977950863668 ], [ 9.425798085184285, 47.407155551154702 ], [ 9.401934486028098, 47.400824785679696 ], [ 9.377833447117007, 47.407448924281006 ], [ 9.365399773091124, 47.40427798466694 ], [ 9.366625106480338, 47.438154999251019 ] ] ] ] } },
{ "type": "Feature", "properties": { "ID": 167, "X_MIN": 755424.768750, "X_MAX": 765424.768750, "Y_MIN": 245937.548750, "Y_MAX": 255937.548750, "longitude": 9.563603, "latitude": 47.389708 }, "geometry": { "type": "MultiPolygon", "coordinates": [ [ [ [ 9.609464506395099, 47.433838786804714 ], [ 9.631649255286305, 47.433430577762742 ], [ 9.628904752897025, 47.36672280218049 ], [ 9.624476205782361, 47.366146826313596 ], [ 9.599418129078275, 47.345004893149849 ], [ 9.599045663861999, 47.344055543847936 ], [ 9.502902774482598, 47.345824642051618 ], [ 9.502973302822971, 47.347373133049324 ], [ 9.498931839100955, 47.363694469244052 ], [ 9.509003459529731, 47.394555508574392 ], [ 9.542602024261074, 47.400147224588117 ], [ 9.555316471902181, 47.396630512739073 ], [ 9.582877835368388, 47.409771470850927 ], [ 9.600312977233866, 47.413495388971029 ], [ 9.588229669922697, 47.425454306367349 ], [ 9.609464506395099, 47.433838786804714 ] ] ] ] } },
{ "type": "Feature", "properties": { "ID": 168, "X_MIN": 765424.768750, "X_MAX": 775424.768750, "Y_MIN": 245937.548750, "Y_MAX": 255937.548750, "longitude": 9.695991, "latitude": 47.387196 }, "geometry": { "type": "MultiPolygon", "coordinates": [ [ [ [ 9.631649255286305, 47.433430577762742 ], [ 9.646272890067126, 47.43314470607212 ], [ 9.645202338000157, 47.431807655546237 ], [ 9.657347757688628, 47.400158963873267 ], [ 9.670623435315999, 47.393683365507663 ], [ 9.67336680425595, 47.381511825775625 ], [ 9.662424418092856, 47.371082362487556 ], [ 9.628904752897025, 47.36672280218049 ], [ 9.631649255286305, 47.433430577762742 ] ] ] ] } },
{ "type": "Feature", "properties": { "ID": 197, "X_MIN": 705424.768750, "X_MAX": 715424.768750, "Y_MIN": 235937.548750, "Y_MAX": 245937.548750, "longitude": 8.899029, "latitude": 47.310063 }, "geometry": { "type": "MultiPolygon", "coordinates": [ [ [ [ 8.960551048920214, 47.354251643222895 ], [ 8.966426248091897, 47.35417725526127 ], [ 8.96639716258453, 47.353160673792331 ], [ 8.960850384173224, 47.353869869995449 ], [ 8.960551048920214, 47.354251643222895 ] ] ], [ [ [ 8.965041048678502, 47.305762488532132 ], [ 8.963853332200872, 47.264250042274341 ], [ 8.938876970806534, 47.264566281925873 ], [ 8.947529994213452, 47.276138990218129 ], [ 8.933584591449916, 47.288420558224466 ], [ 8.948694280274569, 47.293936181689745 ], [ 8.957193737941681, 47.304521039858606 ], [ 8.965041048678502, 47.305762488532132 ] ] ] ] } },
{ "type": "Feature", "properties": { "ID": 198, "X_MIN": 715424.768750, "X_MAX": 725424.768750, "Y_MIN": 235937.548750, "Y_MAX": 245937.548750, "longitude": 9.031247, "latitude": 47.308313 }, "geometry": { "type": "MultiPolygon", "coordinates": [ [ [ [ 8.966426248091897, 47.35417725526127 ], [ 9.098751524545442, 47.352349970184875 ], [ 9.095955779562123, 47.262425804827096 ], [ 8.963853332200872, 47.264250042274341 ], [ 8.965041048678502, 47.305762488532132 ], [ 8.975445684462528, 47.307408507369125 ], [ 8.985028132619012, 47.319381843502242 ], [ 8.977363940282448, 47.327023020288379 ], [ 8.971916336385464, 47.352455007040625 ], [ 8.96639716258453, 47.353160673792331 ], [ 8.966426248091897, 47.35417725526127 ] ] ] ] } },
{ "type": "Feature", "properties": { "ID": 199, "X_MIN": 725424.768750, "X_MAX": 735424.768750, "Y_MIN": 235937.548750, "Y_MAX": 245937.548750, "longitude": 9.163456, "latitude": 47.306412 }, "geometry": { "type": "MultiPolygon", "coordinates": [ [ [ [ 9.098751524545442, 47.352349970184875 ], [ 9.201767481708035, 47.350809179639491 ], [ 9.210890826639702, 47.34094621462107 ], [ 9.224838167181355, 47.342440436946461 ], [ 9.230567583491935, 47.335483895394283 ], [ 9.230406265634873, 47.330678280479013 ], [ 9.211603874268288, 47.322581939780235 ], [ 9.217189618866264, 47.299644103000347 ], [ 9.22454288762567, 47.292935753375936 ], [ 9.206238899030215, 47.276510499992106 ], [ 9.228288967844312, 47.267604557410579 ], [ 9.228048802001103, 47.260450082516897 ], [ 9.095955779562123, 47.262425804827096 ], [ 9.098751524545442, 47.352349970184875 ] ] ] ] } },
{ "type": "Feature", "properties": { "ID": 200, "X_MIN": 735424.768750, "X_MAX": 745424.768750, "Y_MIN": 235937.548750, "Y_MAX": 245937.548750, "longitude": 9.295656, "latitude": 47.304359 }, "geometry": { "type": "MultiPolygon", "coordinates": [ [ [ [ 9.29649265622562, 47.259347798739327 ], [ 9.228048802001103, 47.260450082516897 ], [ 9.228288967844312, 47.267604557410579 ], [ 9.233106336243337, 47.265658839838565 ], [ 9.256223375292047, 47.263317223766272 ], [ 9.273754568581232, 47.270012228870527 ], [ 9.29649265622562, 47.259347798739327 ] ] ], [ [ [ 9.230406265634873, 47.330678280479013 ], [ 9.230567583491935, 47.335483895394283 ], [ 9.233447085316632, 47.33198766244363 ], [ 9.230406265634873, 47.330678280479013 ] ] ] ] } },
{ "type": "Feature", "properties": { "ID": 201, "X_MIN": 745424.768750, "X_MAX": 755424.768750, "Y_MIN": 235937.548750, "Y_MAX": 245937.548750, "longitude": 9.427844, "latitude": 47.302154 }, "geometry": { "type": "MultiPolygon", "coordinates": [ [ [ [ 9.494522527013626, 47.316238332378326 ], [ 9.49220357209914, 47.256044271317528 ], [ 9.4483657639779, 47.256800601281448 ], [ 9.461139883174761, 47.263996128574433 ], [ 9.484813996949637, 47.283688786499603 ], [ 9.492641838734063, 47.312880776032515 ], [ 9.494522527013626, 47.316238332378326 ] ] ] ] } },
{ "type": "Feature", "properties": { "ID": 202, "X_MIN": 755424.768750, "X_MAX": 765424.768750, "Y_MIN": 235937.548750, "Y_MAX": 245937.548750, "longitude": 9.560022, "latitude": 47.299798 }, "geometry": { "type": "MultiPolygon", "coordinates": [ [ [ [ 9.502902774482598, 47.345824642051618 ], [ 9.599045663861999, 47.344055543847936 ], [ 9.589276057715859, 47.319154510491011 ], [ 9.555089346499553, 47.296847026766059 ], [ 9.546141860660933, 47.279998311510894 ], [ 9.532909225648073, 47.272967255427822 ], [ 9.524992499888526, 47.255440922227784 ], [ 9.49220357209914, 47.256044271317528 ], [ 9.494522527013626, 47.316238332378326 ], [ 9.502177687954244, 47.329904942881335 ], [ 9.502902774482598, 47.345824642051618 ] ] ] ] } },
{ "type": "Feature", "properties": { "ID": 231, "X_MIN": 695424.768750, "X_MAX": 705424.768750, "Y_MIN": 225937.548750, "Y_MAX": 235937.548750, "longitude": 8.764567, "latitude": 47.221729 }, "geometry": { "type": "MultiPolygon", "coordinates": [ [ [ [ 8.831366332560638, 47.251489845281831 ], [ 8.830289222992612, 47.210131076492488 ], [ 8.821060505112827, 47.211964307000429 ], [ 8.807774586103562, 47.220561404026206 ], [ 8.795740958386908, 47.239109467069383 ], [ 8.802581070307124, 47.246792185021462 ], [ 8.826429690087762, 47.251482322600289 ], [ 8.831366332560638, 47.251489845281831 ] ] ] ] } },
{ "type": "Feature", "properties": { "ID": 232, "X_MIN": 705424.768750, "X_MAX": 715424.768750, "Y_MIN": 225937.548750, "Y_MAX": 235937.548750, "longitude": 8.896572, "latitude": 47.220134 }, "geometry": { "type": "MultiPolygon", "coordinates": [ [ [ [ 8.938876970806534, 47.264566281925873 ], [ 8.963853332200872, 47.264250042274341 ], [ 8.962531510562536, 47.217892967731984 ], [ 8.941173976869939, 47.218439321232928 ], [ 8.840590718129812, 47.20808474509424 ], [ 8.830289222992612, 47.210131076492488 ], [ 8.831366332560638, 47.251489845281831 ], [ 8.873467211775637, 47.251554000526774 ], [ 8.908425738370786, 47.254378802190345 ], [ 8.935938828602078, 47.260636757983278 ], [ 8.938876970806534, 47.264566281925873 ] ] ], [ [ [ 8.962299670321597, 47.209762191975727 ], [ 8.961507803315197, 47.181990942982125 ], [ 8.957743039692653, 47.199311485640521 ], [ 8.962299670321597, 47.209762191975727 ] ] ] ] } },
{ "type": "Feature", "properties": { "ID": 233, "X_MIN": 715424.768750, "X_MAX": 725424.768750, "Y_MIN": 225937.548750, "Y_MAX": 235937.548750, "longitude": 9.028567, "latitude": 47.218387 }, "geometry": { "type": "MultiPolygon", "coordinates": [ [ [ [ 8.963853332200872, 47.264250042274341 ], [ 9.095955779562123, 47.262425804827096 ], [ 9.093169459560116, 47.172499362758323 ], [ 9.003234513949144, 47.173741318128236 ], [ 8.982440335484673, 47.18309454564303 ], [ 8.962014268007945, 47.179660851588558 ], [ 8.961507803315197, 47.181990942982125 ], [ 8.962299670321597, 47.209762191975727 ], [ 8.9658082362168, 47.217809144826276 ], [ 8.962531510562536, 47.217892967731984 ], [ 8.963853332200872, 47.264250042274341 ] ] ] ] } },
{ "type": "Feature", "properties": { "ID": 234, "X_MIN": 725424.768750, "X_MAX": 735424.768750, "Y_MIN": 225937.548750, "Y_MAX": 235937.548750, "longitude": 9.160554, "latitude": 47.216488 }, "geometry": { "type": "MultiPolygon", "coordinates": [ [ [ [ 9.095955779562123, 47.262425804827096 ], [ 9.228048802001103, 47.260450082516897 ], [ 9.225040457833158, 47.17052692980743 ], [ 9.093169459560116, 47.172499362758323 ], [ 9.095955779562123, 47.262425804827096 ] ] ] ] } },
{ "type": "Feature", "properties": { "ID": 235, "X_MIN": 735424.768750, "X_MAX": 745424.768750, "Y_MIN": 225937.548750, "Y_MAX": 235937.548750, "longitude": 9.292531, "latitude": 47.214438 }, "geometry": { "type": "MultiPolygon", "coordinates": [ [ [ [ 9.228048802001103, 47.260450082516897 ], [ 9.29649265622562, 47.259347798739327 ], [ 9.323322863815761, 47.246764116297527 ], [ 9.342929613975471, 47.249339124699183 ], [ 9.359574641037909, 47.242817889177331 ], [ 9.356901339781523, 47.168403285481581 ], [ 9.225040457833158, 47.17052692980743 ], [ 9.228048802001103, 47.260450082516897 ] ] ] ] } },
{ "type": "Feature", "properties": { "ID": 236, "X_MIN": 745424.768750, "X_MAX": 755424.768750, "Y_MIN": 225937.548750, "Y_MAX": 235937.548750, "longitude": 9.424497, "latitude": 47.212237 }, "geometry": { "type": "MultiPolygon", "coordinates": [ [ [ [ 9.4483657639779, 47.256800601281448 ], [ 9.49220357209914, 47.256044271317528 ], [ 9.489929005735993, 47.196801242935322 ], [ 9.486190534055956, 47.177958602724374 ], [ 9.488911327425678, 47.170294940020248 ], [ 9.48875136005527, 47.166128452896011 ], [ 9.356901339781523, 47.168403285481581 ], [ 9.359574641037909, 47.242817889177331 ], [ 9.382077511976542, 47.234001651104649 ], [ 9.402408224790845, 47.237624701494994 ], [ 9.414717718087356, 47.246465478516164 ], [ 9.437699218218055, 47.250792247988826 ], [ 9.4483657639779, 47.256800601281448 ] ] ] ] } },
{ "type": "Feature", "properties": { "ID": 237, "X_MIN": 755424.768750, "X_MAX": 765424.768750, "Y_MIN": 225937.548750, "Y_MAX": 235937.548750, "longitude": 9.556453, "latitude": 47.209885 }, "geometry": { "type": "MultiPolygon", "coordinates": [ [ [ [ 9.49220357209914, 47.256044271317528 ], [ 9.524992499888526, 47.255440922227784 ], [ 9.518857746285139, 47.241859583298179 ], [ 9.50426309311792, 47.224909704394278 ], [ 9.490216188269821, 47.198248699977377 ], [ 9.489929005735993, 47.196801242935322 ], [ 9.49220357209914, 47.256044271317528 ] ] ], [ [ [ 9.490401314360986, 47.166098091618295 ], [ 9.48875136005527, 47.166128452896011 ], [ 9.488911327425678, 47.170294940020248 ], [ 9.490401314360986, 47.166098091618295 ] ] ] ] } },
{ "type": "Feature", "properties": { "ID": 268, "X_MIN": 715424.768750, "X_MAX": 725424.768750, "Y_MIN": 215937.548750, "Y_MAX": 225937.548750, "longitude": 9.025897, "latitude": 47.128458 }, "geometry": { "type": "MultiPolygon", "coordinates": [ [ [ [ 9.003234513949144, 47.173741318128236 ], [ 9.093169459560116, 47.172499362758323 ], [ 9.091934737752835, 47.132514234896313 ], [ 9.06679151274751, 47.130552472348555 ], [ 9.004555868389643, 47.173146972516996 ], [ 9.003234513949144, 47.173741318128236 ] ] ] ] } },
{ "type": "Feature", "properties": { "ID": 269, "X_MIN": 725424.768750, "X_MAX": 735424.768750, "Y_MIN": 215937.548750, "Y_MAX": 225937.548750, "longitude": 9.157662, "latitude": 47.126562 }, "geometry": { "type": "MultiPolygon", "coordinates": [ [ [ [ 9.093169459560116, 47.172499362758323 ], [ 9.225040457833158, 47.17052692980743 ], [ 9.222042230053525, 47.08060171030202 ], [ 9.189891177467567, 47.08108261064249 ], [ 9.186195666648079, 47.097534724275633 ], [ 9.189845196730388, 47.123723278256037 ], [ 9.136073875992709, 47.131960984681861 ], [ 9.10157343803378, 47.133266280078118 ], [ 9.091934737752835, 47.132514234896313 ], [ 9.093169459560116, 47.172499362758323 ] ] ] ] } },
{ "type": "Feature", "properties": { "ID": 270, "X_MIN": 735424.768750, "X_MAX": 745424.768750, "Y_MIN": 215937.548750, "Y_MAX": 225937.548750, "longitude": 9.289417, "latitude": 47.124516 }, "geometry": { "type": "MultiPolygon", "coordinates": [ [ [ [ 9.225040457833158, 47.17052692980743 ], [ 9.356901339781523, 47.168403285481581 ], [ 9.353681891903948, 47.078481595316823 ], [ 9.222042230053525, 47.08060171030202 ], [ 9.225040457833158, 47.17052692980743 ] ] ] ] } },
{ "type": "Feature", "properties": { "ID": 271, "X_MIN": 745424.768750, "X_MAX": 755424.768750, "Y_MIN": 215937.548750, "Y_MAX": 225937.548750, "longitude": 9.421162, "latitude": 47.122319 }, "geometry": { "type": "MultiPolygon", "coordinates": [ [ [ [ 9.356901339781523, 47.168403285481581 ], [ 9.48875136005527, 47.166128452896011 ], [ 9.485310754634066, 47.076210542999831 ], [ 9.353681891903948, 47.078481595316823 ], [ 9.356901339781523, 47.168403285481581 ] ] ] ] } },
{ "type": "Feature", "properties": { "ID": 272, "X_MIN": 755424.768750, "X_MAX": 765424.768750, "Y_MIN": 215937.548750, "Y_MAX": 225937.548750, "longitude": 9.552895, "latitude": 47.119970 }, "geometry": { "type": "MultiPolygon", "coordinates": [ [ [ [ 9.48875136005527, 47.166128452896011 ], [ 9.490401314360986, 47.166098091618295 ], [ 9.4919545407441, 47.161723116570279 ], [ 9.507044770791129, 47.143591357558371 ], [ 9.520041842889722, 47.103432153371735 ], [ 9.514384679127676, 47.086680494330359 ], [ 9.49664946621767, 47.076001892935622 ], [ 9.485310754634066, 47.076210542999831 ], [ 9.48875136005527, 47.166128452896011 ] ] ] ] } },
{ "type": "Feature", "properties": { "ID": 304, "X_MIN": 725424.768750, "X_MAX": 735424.768750, "Y_MIN": 205937.548750, "Y_MAX": 215937.548750, "longitude": 9.154779, "latitude": 47.036635 }, "geometry": { "type": "MultiPolygon", "coordinates": [ [ [ [ 9.189891177467567, 47.08108261064249 ], [ 9.222042230053525, 47.08060171030202 ], [ 9.220469418950287, 47.033268960598747 ], [ 9.201680318444055, 47.035189189273495 ], [ 9.180549610490848, 47.026001918254238 ], [ 9.156328091116954, 47.030173179137314 ], [ 9.138152073906825, 47.03918945606128 ], [ 9.168740644876486, 47.049862238921563 ], [ 9.182270235589924, 47.058276962758278 ], [ 9.191796640121627, 47.072599645867228 ], [ 9.189891177467567, 47.08108261064249 ] ] ] ] } },
{ "type": "Feature", "properties": { "ID": 305, "X_MIN": 735424.768750, "X_MAX": 745424.768750, "Y_MIN": 205937.548750, "Y_MAX": 215937.548750, "longitude": 9.286313, "latitude": 47.034592 }, "geometry": { "type": "MultiPolygon", "coordinates": [ [ [ [ 9.222042230053525, 47.08060171030202 ], [ 9.353681891903948, 47.078481595316823 ], [ 9.350473243214818, 46.988558047595987 ], [ 9.24856032015135, 46.99019942621949 ], [ 9.249903379943468, 46.995164265221689 ], [ 9.2428642786513, 47.014619651063605 ], [ 9.222324195134465, 47.033079404190076 ], [ 9.220469418950287, 47.033268960598747 ], [ 9.222042230053525, 47.08060171030202 ] ] ] ] } },
{ "type": "Feature", "properties": { "ID": 306, "X_MIN": 745424.768750, "X_MAX": 755424.768750, "Y_MIN": 205937.548750, "Y_MAX": 215937.548750, "longitude": 9.417837, "latitude": 47.032398 }, "geometry": { "type": "MultiPolygon", "coordinates": [ [ [ [ 9.353681891903948, 47.078481595316823 ], [ 9.485310754634066, 47.076210542999831 ], [ 9.485036139479575, 47.069009358493986 ], [ 9.472226317852147, 47.061296398982805 ], [ 9.476039062362059, 47.051798976231915 ], [ 9.484047798053565, 47.04309225651653 ], [ 9.481881688999829, 46.98629076286003 ], [ 9.350473243214818, 46.988558047595987 ], [ 9.353681891903948, 47.078481595316823 ] ] ] ] } },
{ "type": "Feature", "properties": { "ID": 307, "X_MIN": 755424.768750, "X_MAX": 765424.768750, "Y_MIN": 205937.548750, "Y_MAX": 215937.548750, "longitude": 9.549350, "latitude": 47.030053 }, "geometry": { "type": "MultiPolygon", "coordinates": [ [ [ [ 9.485310754634066, 47.076210542999831 ], [ 9.49664946621767, 47.076001892935622 ], [ 9.485036139479575, 47.069009358493986 ], [ 9.485310754634066, 47.076210542999831 ] ] ], [ [ [ 9.536030475909387, 46.985294324958993 ], [ 9.481881688999829, 46.98629076286003 ], [ 9.484047798053565, 47.04309225651653 ], [ 9.506831222036769, 47.018323192531938 ], [ 9.51681462292205, 47.002287816014388 ], [ 9.536030475909387, 46.985294324958993 ] ] ] ] } },
{ "type": "Feature", "properties": { "ID": 340, "X_MIN": 735424.768750, "X_MAX": 745424.768750, "Y_MIN": 195937.548750, "Y_MAX": 205937.548750, "longitude": 9.283220, "latitude": 46.944665 }, "geometry": { "type": "MultiPolygon", "coordinates": [ [ [ [ 9.24856032015135, 46.99019942621949 ], [ 9.350473243214818, 46.988558047595987 ], [ 9.347310563222035, 46.899623574870212 ], [ 9.30992130250981, 46.90577115308573 ], [ 9.275332435059722, 46.907069319823123 ], [ 9.266618401948138, 46.903699667154569 ], [ 9.248872301113364, 46.916263416956554 ], [ 9.249642378580276, 46.935604973525798 ], [ 9.236289878546863, 46.944839742749188 ], [ 9.24856032015135, 46.99019942621949 ] ] ] ] } },
{ "type": "Feature", "properties": { "ID": 341, "X_MIN": 745424.768750, "X_MAX": 755424.768750, "Y_MIN": 195937.548750, "Y_MAX": 205937.548750, "longitude": 9.414524, "latitude": 46.942475 }, "geometry": { "type": "MultiPolygon", "coordinates": [ [ [ [ 9.350473243214818, 46.988558047595987 ], [ 9.481881688999829, 46.98629076286003 ], [ 9.479454809460213, 46.922436310642318 ], [ 9.467272668948569, 46.899840987113777 ], [ 9.467161518695168, 46.896564348320823 ], [ 9.354046580411904, 46.898516032443673 ], [ 9.347310563222035, 46.899623574870212 ], [ 9.350473243214818, 46.988558047595987 ] ] ] ] } },
{ "type": "Feature", "properties": { "ID": 342, "X_MIN": 755424.768750, "X_MAX": 765424.768750, "Y_MIN": 195937.548750, "Y_MAX": 205937.548750, "longitude": 9.545817, "latitude": 46.940135 }, "geometry": { "type": "MultiPolygon", "coordinates": [ [ [ [ 9.481881688999829, 46.98629076286003 ], [ 9.536030475909387, 46.985294324958993 ], [ 9.545708289591465, 46.976735774872743 ], [ 9.520247865523212, 46.971433262285323 ], [ 9.518458707174382, 46.955781981525043 ], [ 9.504559976862478, 46.953549706751545 ], [ 9.48651253214627, 46.935526910550749 ], [ 9.479454809460213, 46.922436310642318 ], [ 9.481881688999829, 46.98629076286003 ] ] ] ] } },
{ "type": "Feature", "properties": { "ID": 376, "X_MIN": 745424.768750, "X_MAX": 755424.768750, "Y_MIN": 185937.548750, "Y_MAX": 195937.548750, "longitude": 9.411222, "latitude": 46.852551 }, "geometry": { "type": "MultiPolygon", "coordinates": [ [ [ [ 9.354046580411904, 46.898516032443673 ], [ 9.467161518695168, 46.896564348320823 ], [ 9.466806243335226, 46.886091056619264 ], [ 9.448856551627827, 46.872883569056008 ], [ 9.43308799908233, 46.884641053766011 ], [ 9.381691600266732, 46.897637235667148 ], [ 9.361228725334907, 46.897335137266069 ], [ 9.354046580411904, 46.898516032443673 ] ] ] ] } }
]
}
